\contentsline {chapter}{\numberline {1}\discretionary {-}{}{}A\discretionary {-}{}{}P\discretionary {-}{}{}I \discretionary {-}{}{}Documentation -\/ \discretionary {-}{}{}C\discretionary {-}{}{}I\discretionary {-}{}{}C\discretionary {-}{}{}M\discretionary {-}{}{}S \discretionary {-}{}{}C01-\/05}{1}{chapter.1}
\contentsline {section}{\numberline {1.1}\discretionary {-}{}{}Introduction}{1}{section.1.1}
\contentsline {section}{\numberline {1.2}\discretionary {-}{}{}Offline P\discretionary {-}{}{}D\discretionary {-}{}{}F}{1}{section.1.2}
\contentsline {section}{\numberline {1.3}\discretionary {-}{}{}Installation}{1}{section.1.3}
\contentsline {subsection}{\numberline {1.3.1}\discretionary {-}{}{}L\discretionary {-}{}{}I\discretionary {-}{}{}N\discretionary {-}{}{}U\discretionary {-}{}{}X, U\discretionary {-}{}{}N\discretionary {-}{}{}I\discretionary {-}{}{}X-\/based and emulated systems, etc.}{2}{subsection.1.3.1}
\contentsline {subsection}{\numberline {1.3.2}\discretionary {-}{}{}W\discretionary {-}{}{}I\discretionary {-}{}{}N\discretionary {-}{}{}D\discretionary {-}{}{}O\discretionary {-}{}{}W\discretionary {-}{}{}S}{2}{subsection.1.3.2}
\contentsline {section}{\numberline {1.4}\discretionary {-}{}{}Navigation}{2}{section.1.4}
\contentsline {section}{\numberline {1.5}\discretionary {-}{}{}Report}{2}{section.1.5}
\contentsline {section}{\numberline {1.6}\discretionary {-}{}{}Authors}{2}{section.1.6}
\contentsline {chapter}{\numberline {2}\discretionary {-}{}{}Todo \discretionary {-}{}{}List}{3}{chapter.2}
\contentsline {chapter}{\numberline {3}\discretionary {-}{}{}Namespace \discretionary {-}{}{}Index}{5}{chapter.3}
\contentsline {section}{\numberline {3.1}\discretionary {-}{}{}Namespace \discretionary {-}{}{}List}{5}{section.3.1}
\contentsline {chapter}{\numberline {4}\discretionary {-}{}{}Class \discretionary {-}{}{}Index}{7}{chapter.4}
\contentsline {section}{\numberline {4.1}\discretionary {-}{}{}Class \discretionary {-}{}{}Hierarchy}{7}{section.4.1}
\contentsline {chapter}{\numberline {5}\discretionary {-}{}{}Class \discretionary {-}{}{}Index}{9}{chapter.5}
\contentsline {section}{\numberline {5.1}\discretionary {-}{}{}Class \discretionary {-}{}{}List}{9}{section.5.1}
\contentsline {chapter}{\numberline {6}\discretionary {-}{}{}File \discretionary {-}{}{}Index}{13}{chapter.6}
\contentsline {section}{\numberline {6.1}\discretionary {-}{}{}File \discretionary {-}{}{}List}{13}{section.6.1}
\contentsline {chapter}{\numberline {7}\discretionary {-}{}{}Namespace \discretionary {-}{}{}Documentation}{17}{chapter.7}
\contentsline {section}{\numberline {7.1}\discretionary {-}{}{}Color\discretionary {-}{}{}Pairs \discretionary {-}{}{}Namespace \discretionary {-}{}{}Reference}{17}{section.7.1}
\contentsline {subsection}{\numberline {7.1.1}\discretionary {-}{}{}Detailed \discretionary {-}{}{}Description}{18}{subsection.7.1.1}
\contentsline {subsection}{\numberline {7.1.2}\discretionary {-}{}{}Function \discretionary {-}{}{}Documentation}{18}{subsection.7.1.2}
\contentsline {subsubsection}{\numberline {7.1.2.1}change\discretionary {-}{}{}\_\discretionary {-}{}{}default\discretionary {-}{}{}\_\discretionary {-}{}{}colors}{18}{subsubsection.7.1.2.1}
\contentsline {subsubsection}{\numberline {7.1.2.2}init}{19}{subsubsection.7.1.2.2}
\contentsline {subsubsection}{\numberline {7.1.2.3}make\discretionary {-}{}{}\_\discretionary {-}{}{}color\discretionary {-}{}{}\_\discretionary {-}{}{}pairs}{19}{subsubsection.7.1.2.3}
\contentsline {subsubsection}{\numberline {7.1.2.4}make\discretionary {-}{}{}\_\discretionary {-}{}{}colors}{19}{subsubsection.7.1.2.4}
\contentsline {subsection}{\numberline {7.1.3}\discretionary {-}{}{}Variable \discretionary {-}{}{}Documentation}{20}{subsection.7.1.3}
\contentsline {subsubsection}{\numberline {7.1.3.1}\discretionary {-}{}{}C\discretionary {-}{}{}O\discretionary {-}{}{}L\discretionary {-}{}{}O\discretionary {-}{}{}R\discretionary {-}{}{}\_\discretionary {-}{}{}\discretionary {-}{}{}B\discretionary {-}{}{}L\discretionary {-}{}{}A\discretionary {-}{}{}C\discretionary {-}{}{}K2}{20}{subsubsection.7.1.3.1}
\contentsline {subsubsection}{\numberline {7.1.3.2}\discretionary {-}{}{}C\discretionary {-}{}{}O\discretionary {-}{}{}L\discretionary {-}{}{}O\discretionary {-}{}{}R\discretionary {-}{}{}\_\discretionary {-}{}{}\discretionary {-}{}{}B\discretionary {-}{}{}L\discretionary {-}{}{}U\discretionary {-}{}{}E2}{20}{subsubsection.7.1.3.2}
\contentsline {subsubsection}{\numberline {7.1.3.3}\discretionary {-}{}{}C\discretionary {-}{}{}O\discretionary {-}{}{}L\discretionary {-}{}{}O\discretionary {-}{}{}R\discretionary {-}{}{}\_\discretionary {-}{}{}\discretionary {-}{}{}C\discretionary {-}{}{}Y\discretionary {-}{}{}A\discretionary {-}{}{}N2}{20}{subsubsection.7.1.3.3}
\contentsline {subsubsection}{\numberline {7.1.3.4}\discretionary {-}{}{}C\discretionary {-}{}{}O\discretionary {-}{}{}L\discretionary {-}{}{}O\discretionary {-}{}{}R\discretionary {-}{}{}\_\discretionary {-}{}{}\discretionary {-}{}{}D\discretionary {-}{}{}A\discretionary {-}{}{}R\discretionary {-}{}{}K\discretionary {-}{}{}\_\discretionary {-}{}{}\discretionary {-}{}{}C\discretionary {-}{}{}Y\discretionary {-}{}{}A\discretionary {-}{}{}N2}{20}{subsubsection.7.1.3.4}
\contentsline {subsubsection}{\numberline {7.1.3.5}\discretionary {-}{}{}C\discretionary {-}{}{}O\discretionary {-}{}{}L\discretionary {-}{}{}O\discretionary {-}{}{}R\discretionary {-}{}{}\_\discretionary {-}{}{}\discretionary {-}{}{}D\discretionary {-}{}{}A\discretionary {-}{}{}R\discretionary {-}{}{}K\discretionary {-}{}{}\_\discretionary {-}{}{}\discretionary {-}{}{}G\discretionary {-}{}{}R\discretionary {-}{}{}E\discretionary {-}{}{}E\discretionary {-}{}{}N2}{20}{subsubsection.7.1.3.5}
\contentsline {subsubsection}{\numberline {7.1.3.6}\discretionary {-}{}{}C\discretionary {-}{}{}O\discretionary {-}{}{}L\discretionary {-}{}{}O\discretionary {-}{}{}R\discretionary {-}{}{}\_\discretionary {-}{}{}\discretionary {-}{}{}D\discretionary {-}{}{}A\discretionary {-}{}{}R\discretionary {-}{}{}K\discretionary {-}{}{}\_\discretionary {-}{}{}\discretionary {-}{}{}G\discretionary {-}{}{}R\discretionary {-}{}{}E\discretionary {-}{}{}Y2}{20}{subsubsection.7.1.3.6}
\contentsline {subsubsection}{\numberline {7.1.3.7}\discretionary {-}{}{}C\discretionary {-}{}{}O\discretionary {-}{}{}L\discretionary {-}{}{}O\discretionary {-}{}{}R\discretionary {-}{}{}\_\discretionary {-}{}{}\discretionary {-}{}{}D\discretionary {-}{}{}A\discretionary {-}{}{}R\discretionary {-}{}{}K\discretionary {-}{}{}\_\discretionary {-}{}{}\discretionary {-}{}{}R\discretionary {-}{}{}E\discretionary {-}{}{}D2}{20}{subsubsection.7.1.3.7}
\contentsline {subsubsection}{\numberline {7.1.3.8}\discretionary {-}{}{}C\discretionary {-}{}{}O\discretionary {-}{}{}L\discretionary {-}{}{}O\discretionary {-}{}{}R\discretionary {-}{}{}\_\discretionary {-}{}{}\discretionary {-}{}{}D\discretionary {-}{}{}A\discretionary {-}{}{}R\discretionary {-}{}{}K\discretionary {-}{}{}\_\discretionary {-}{}{}\discretionary {-}{}{}Y\discretionary {-}{}{}E\discretionary {-}{}{}L\discretionary {-}{}{}L\discretionary {-}{}{}O\discretionary {-}{}{}W2}{20}{subsubsection.7.1.3.8}
\contentsline {subsubsection}{\numberline {7.1.3.9}\discretionary {-}{}{}C\discretionary {-}{}{}O\discretionary {-}{}{}L\discretionary {-}{}{}O\discretionary {-}{}{}R\discretionary {-}{}{}\_\discretionary {-}{}{}\discretionary {-}{}{}G\discretionary {-}{}{}R\discretionary {-}{}{}E\discretionary {-}{}{}E\discretionary {-}{}{}N2}{20}{subsubsection.7.1.3.9}
\contentsline {subsubsection}{\numberline {7.1.3.10}\discretionary {-}{}{}C\discretionary {-}{}{}O\discretionary {-}{}{}L\discretionary {-}{}{}O\discretionary {-}{}{}R\discretionary {-}{}{}\_\discretionary {-}{}{}\discretionary {-}{}{}G\discretionary {-}{}{}R\discretionary {-}{}{}E\discretionary {-}{}{}Y2}{20}{subsubsection.7.1.3.10}
\contentsline {subsubsection}{\numberline {7.1.3.11}\discretionary {-}{}{}C\discretionary {-}{}{}O\discretionary {-}{}{}L\discretionary {-}{}{}O\discretionary {-}{}{}R\discretionary {-}{}{}\_\discretionary {-}{}{}\discretionary {-}{}{}M\discretionary {-}{}{}A\discretionary {-}{}{}G\discretionary {-}{}{}E\discretionary {-}{}{}N\discretionary {-}{}{}T\discretionary {-}{}{}A2}{20}{subsubsection.7.1.3.11}
\contentsline {subsubsection}{\numberline {7.1.3.12}\discretionary {-}{}{}C\discretionary {-}{}{}O\discretionary {-}{}{}L\discretionary {-}{}{}O\discretionary {-}{}{}R\discretionary {-}{}{}\_\discretionary {-}{}{}\discretionary {-}{}{}O\discretionary {-}{}{}R\discretionary {-}{}{}A\discretionary {-}{}{}N\discretionary {-}{}{}G\discretionary {-}{}{}E}{20}{subsubsection.7.1.3.12}
\contentsline {subsubsection}{\numberline {7.1.3.13}\discretionary {-}{}{}C\discretionary {-}{}{}O\discretionary {-}{}{}L\discretionary {-}{}{}O\discretionary {-}{}{}R\discretionary {-}{}{}\_\discretionary {-}{}{}\discretionary {-}{}{}P\discretionary {-}{}{}A\discretionary {-}{}{}I\discretionary {-}{}{}R\discretionary {-}{}{}\_\discretionary {-}{}{}\discretionary {-}{}{}F\discretionary {-}{}{}O\discretionary {-}{}{}R\discretionary {-}{}{}M\discretionary {-}{}{}\_\discretionary {-}{}{}\discretionary {-}{}{}N\discretionary {-}{}{}O\discretionary {-}{}{}R\discretionary {-}{}{}M}{21}{subsubsection.7.1.3.13}
\contentsline {subsubsection}{\numberline {7.1.3.14}\discretionary {-}{}{}C\discretionary {-}{}{}O\discretionary {-}{}{}L\discretionary {-}{}{}O\discretionary {-}{}{}R\discretionary {-}{}{}\_\discretionary {-}{}{}\discretionary {-}{}{}P\discretionary {-}{}{}A\discretionary {-}{}{}I\discretionary {-}{}{}R\discretionary {-}{}{}\_\discretionary {-}{}{}\discretionary {-}{}{}F\discretionary {-}{}{}O\discretionary {-}{}{}R\discretionary {-}{}{}M\discretionary {-}{}{}\_\discretionary {-}{}{}\discretionary {-}{}{}S\discretionary {-}{}{}E\discretionary {-}{}{}L}{21}{subsubsection.7.1.3.14}
\contentsline {subsubsection}{\numberline {7.1.3.15}\discretionary {-}{}{}C\discretionary {-}{}{}O\discretionary {-}{}{}L\discretionary {-}{}{}O\discretionary {-}{}{}R\discretionary {-}{}{}\_\discretionary {-}{}{}\discretionary {-}{}{}P\discretionary {-}{}{}A\discretionary {-}{}{}I\discretionary {-}{}{}R\discretionary {-}{}{}\_\discretionary {-}{}{}\discretionary {-}{}{}S\discretionary {-}{}{}C\discretionary {-}{}{}R\discretionary {-}{}{}O\discretionary {-}{}{}L\discretionary {-}{}{}L\discretionary {-}{}{}\_\discretionary {-}{}{}0}{21}{subsubsection.7.1.3.15}
\contentsline {subsubsection}{\numberline {7.1.3.16}\discretionary {-}{}{}C\discretionary {-}{}{}O\discretionary {-}{}{}L\discretionary {-}{}{}O\discretionary {-}{}{}R\discretionary {-}{}{}\_\discretionary {-}{}{}\discretionary {-}{}{}P\discretionary {-}{}{}A\discretionary {-}{}{}I\discretionary {-}{}{}R\discretionary {-}{}{}\_\discretionary {-}{}{}\discretionary {-}{}{}S\discretionary {-}{}{}C\discretionary {-}{}{}R\discretionary {-}{}{}O\discretionary {-}{}{}L\discretionary {-}{}{}L\discretionary {-}{}{}\_\discretionary {-}{}{}1}{21}{subsubsection.7.1.3.16}
\contentsline {subsubsection}{\numberline {7.1.3.17}\discretionary {-}{}{}C\discretionary {-}{}{}O\discretionary {-}{}{}L\discretionary {-}{}{}O\discretionary {-}{}{}R\discretionary {-}{}{}\_\discretionary {-}{}{}\discretionary {-}{}{}P\discretionary {-}{}{}A\discretionary {-}{}{}I\discretionary {-}{}{}R\discretionary {-}{}{}\_\discretionary {-}{}{}\discretionary {-}{}{}S\discretionary {-}{}{}C\discretionary {-}{}{}R\discretionary {-}{}{}O\discretionary {-}{}{}L\discretionary {-}{}{}L\discretionary {-}{}{}\_\discretionary {-}{}{}\discretionary {-}{}{}H\discretionary {-}{}{}E\discretionary {-}{}{}A\discretionary {-}{}{}D\discretionary {-}{}{}E\discretionary {-}{}{}R}{21}{subsubsection.7.1.3.17}
\contentsline {subsubsection}{\numberline {7.1.3.18}\discretionary {-}{}{}C\discretionary {-}{}{}O\discretionary {-}{}{}L\discretionary {-}{}{}O\discretionary {-}{}{}R\discretionary {-}{}{}\_\discretionary {-}{}{}\discretionary {-}{}{}P\discretionary {-}{}{}A\discretionary {-}{}{}I\discretionary {-}{}{}R\discretionary {-}{}{}\_\discretionary {-}{}{}\discretionary {-}{}{}S\discretionary {-}{}{}C\discretionary {-}{}{}R\discretionary {-}{}{}O\discretionary {-}{}{}L\discretionary {-}{}{}L\discretionary {-}{}{}\_\discretionary {-}{}{}\discretionary {-}{}{}S\discretionary {-}{}{}E\discretionary {-}{}{}A\discretionary {-}{}{}R\discretionary {-}{}{}C\discretionary {-}{}{}H}{21}{subsubsection.7.1.3.18}
\contentsline {subsubsection}{\numberline {7.1.3.19}\discretionary {-}{}{}C\discretionary {-}{}{}O\discretionary {-}{}{}L\discretionary {-}{}{}O\discretionary {-}{}{}R\discretionary {-}{}{}\_\discretionary {-}{}{}\discretionary {-}{}{}P\discretionary {-}{}{}A\discretionary {-}{}{}I\discretionary {-}{}{}R\discretionary {-}{}{}\_\discretionary {-}{}{}\discretionary {-}{}{}S\discretionary {-}{}{}C\discretionary {-}{}{}R\discretionary {-}{}{}O\discretionary {-}{}{}L\discretionary {-}{}{}L\discretionary {-}{}{}\_\discretionary {-}{}{}\discretionary {-}{}{}S\discretionary {-}{}{}E\discretionary {-}{}{}L}{21}{subsubsection.7.1.3.19}
\contentsline {subsubsection}{\numberline {7.1.3.20}\discretionary {-}{}{}C\discretionary {-}{}{}O\discretionary {-}{}{}L\discretionary {-}{}{}O\discretionary {-}{}{}R\discretionary {-}{}{}\_\discretionary {-}{}{}\discretionary {-}{}{}P\discretionary {-}{}{}A\discretionary {-}{}{}I\discretionary {-}{}{}R\discretionary {-}{}{}\_\discretionary {-}{}{}\discretionary {-}{}{}S\discretionary {-}{}{}T\discretionary {-}{}{}A\discretionary {-}{}{}T\discretionary {-}{}{}U\discretionary {-}{}{}S\discretionary {-}{}{}\_\discretionary {-}{}{}\discretionary {-}{}{}E\discretionary {-}{}{}R\discretionary {-}{}{}R\discretionary {-}{}{}O\discretionary {-}{}{}R}{21}{subsubsection.7.1.3.20}
\contentsline {subsubsection}{\numberline {7.1.3.21}\discretionary {-}{}{}C\discretionary {-}{}{}O\discretionary {-}{}{}L\discretionary {-}{}{}O\discretionary {-}{}{}R\discretionary {-}{}{}\_\discretionary {-}{}{}\discretionary {-}{}{}P\discretionary {-}{}{}A\discretionary {-}{}{}I\discretionary {-}{}{}R\discretionary {-}{}{}\_\discretionary {-}{}{}\discretionary {-}{}{}S\discretionary {-}{}{}T\discretionary {-}{}{}A\discretionary {-}{}{}T\discretionary {-}{}{}U\discretionary {-}{}{}S\discretionary {-}{}{}\_\discretionary {-}{}{}\discretionary {-}{}{}N\discretionary {-}{}{}O\discretionary {-}{}{}R\discretionary {-}{}{}M\discretionary {-}{}{}A\discretionary {-}{}{}L}{21}{subsubsection.7.1.3.21}
\contentsline {subsubsection}{\numberline {7.1.3.22}\discretionary {-}{}{}C\discretionary {-}{}{}O\discretionary {-}{}{}L\discretionary {-}{}{}O\discretionary {-}{}{}R\discretionary {-}{}{}\_\discretionary {-}{}{}\discretionary {-}{}{}P\discretionary {-}{}{}A\discretionary {-}{}{}I\discretionary {-}{}{}R\discretionary {-}{}{}\_\discretionary {-}{}{}\discretionary {-}{}{}T\discretionary {-}{}{}O\discretionary {-}{}{}P\discretionary {-}{}{}\_\discretionary {-}{}{}\discretionary {-}{}{}M\discretionary {-}{}{}E\discretionary {-}{}{}N\discretionary {-}{}{}U}{21}{subsubsection.7.1.3.22}
\contentsline {subsubsection}{\numberline {7.1.3.23}\discretionary {-}{}{}C\discretionary {-}{}{}O\discretionary {-}{}{}L\discretionary {-}{}{}O\discretionary {-}{}{}R\discretionary {-}{}{}\_\discretionary {-}{}{}\discretionary {-}{}{}P\discretionary {-}{}{}A\discretionary {-}{}{}I\discretionary {-}{}{}R\discretionary {-}{}{}\_\discretionary {-}{}{}\discretionary {-}{}{}T\discretionary {-}{}{}O\discretionary {-}{}{}P\discretionary {-}{}{}\_\discretionary {-}{}{}\discretionary {-}{}{}W\discretionary {-}{}{}I\discretionary {-}{}{}N}{22}{subsubsection.7.1.3.23}
\contentsline {subsubsection}{\numberline {7.1.3.24}\discretionary {-}{}{}C\discretionary {-}{}{}O\discretionary {-}{}{}L\discretionary {-}{}{}O\discretionary {-}{}{}R\discretionary {-}{}{}\_\discretionary {-}{}{}\discretionary {-}{}{}R\discretionary {-}{}{}E\discretionary {-}{}{}D2}{22}{subsubsection.7.1.3.24}
\contentsline {subsubsection}{\numberline {7.1.3.25}\discretionary {-}{}{}C\discretionary {-}{}{}O\discretionary {-}{}{}L\discretionary {-}{}{}O\discretionary {-}{}{}R\discretionary {-}{}{}\_\discretionary {-}{}{}\discretionary {-}{}{}W\discretionary {-}{}{}H\discretionary {-}{}{}I\discretionary {-}{}{}T\discretionary {-}{}{}E2}{22}{subsubsection.7.1.3.25}
\contentsline {subsubsection}{\numberline {7.1.3.26}\discretionary {-}{}{}C\discretionary {-}{}{}O\discretionary {-}{}{}L\discretionary {-}{}{}O\discretionary {-}{}{}R\discretionary {-}{}{}\_\discretionary {-}{}{}\discretionary {-}{}{}Y\discretionary {-}{}{}E\discretionary {-}{}{}L\discretionary {-}{}{}L\discretionary {-}{}{}O\discretionary {-}{}{}W2}{22}{subsubsection.7.1.3.26}
\contentsline {section}{\numberline {7.2}common \discretionary {-}{}{}Namespace \discretionary {-}{}{}Reference}{22}{section.7.2}
\contentsline {subsection}{\numberline {7.2.1}\discretionary {-}{}{}Detailed \discretionary {-}{}{}Description}{22}{subsection.7.2.1}
\contentsline {section}{\numberline {7.3}common\discretionary {-}{}{}:\discretionary {-}{}{}:error\discretionary {-}{}{}Checker \discretionary {-}{}{}Namespace \discretionary {-}{}{}Reference}{23}{section.7.3}
\contentsline {subsection}{\numberline {7.3.1}\discretionary {-}{}{}Detailed \discretionary {-}{}{}Description}{23}{subsection.7.3.1}
\contentsline {subsection}{\numberline {7.3.2}\discretionary {-}{}{}Function \discretionary {-}{}{}Documentation}{23}{subsection.7.3.2}
\contentsline {subsubsection}{\numberline {7.3.2.1}check\discretionary {-}{}{}\_\discretionary {-}{}{}valid\discretionary {-}{}{}\_\discretionary {-}{}{}barcode}{23}{subsubsection.7.3.2.1}
\contentsline {subsubsection}{\numberline {7.3.2.2}is\discretionary {-}{}{}\_\discretionary {-}{}{}num}{24}{subsubsection.7.3.2.2}
\contentsline {subsubsection}{\numberline {7.3.2.3}within\discretionary {-}{}{}\_\discretionary {-}{}{}barcode\discretionary {-}{}{}\_\discretionary {-}{}{}len}{24}{subsubsection.7.3.2.3}
\contentsline {section}{\numberline {7.4}common\discretionary {-}{}{}:\discretionary {-}{}{}:utils \discretionary {-}{}{}Namespace \discretionary {-}{}{}Reference}{24}{section.7.4}
\contentsline {subsection}{\numberline {7.4.1}\discretionary {-}{}{}Detailed \discretionary {-}{}{}Description}{25}{subsection.7.4.1}
\contentsline {subsection}{\numberline {7.4.2}\discretionary {-}{}{}Function \discretionary {-}{}{}Documentation}{25}{subsection.7.4.2}
\contentsline {subsubsection}{\numberline {7.4.2.1}dos\discretionary {-}{}{}To\discretionary {-}{}{}Unix}{25}{subsubsection.7.4.2.1}
\contentsline {subsubsection}{\numberline {7.4.2.2}dtoa}{26}{subsubsection.7.4.2.2}
\contentsline {subsubsection}{\numberline {7.4.2.3}itoa}{26}{subsubsection.7.4.2.3}
\contentsline {subsubsection}{\numberline {7.4.2.4}itoa}{26}{subsubsection.7.4.2.4}
\contentsline {subsubsection}{\numberline {7.4.2.5}itoa}{26}{subsubsection.7.4.2.5}
\contentsline {subsubsection}{\numberline {7.4.2.6}itoa}{26}{subsubsection.7.4.2.6}
\contentsline {subsubsection}{\numberline {7.4.2.7}str\discretionary {-}{}{}\_\discretionary {-}{}{}atof}{27}{subsubsection.7.4.2.7}
\contentsline {subsubsection}{\numberline {7.4.2.8}str\discretionary {-}{}{}\_\discretionary {-}{}{}atoi}{27}{subsubsection.7.4.2.8}
\contentsline {subsubsection}{\numberline {7.4.2.9}trim}{27}{subsubsection.7.4.2.9}
\contentsline {subsubsection}{\numberline {7.4.2.10}truncate}{28}{subsubsection.7.4.2.10}
\contentsline {section}{\numberline {7.5}common\discretionary {-}{}{}:\discretionary {-}{}{}:utils\discretionary {-}{}{}:\discretionary {-}{}{}:form \discretionary {-}{}{}Namespace \discretionary {-}{}{}Reference}{28}{section.7.5}
\contentsline {subsection}{\numberline {7.5.1}\discretionary {-}{}{}Detailed \discretionary {-}{}{}Description}{28}{subsection.7.5.1}
\contentsline {subsection}{\numberline {7.5.2}\discretionary {-}{}{}Function \discretionary {-}{}{}Documentation}{28}{subsection.7.5.2}
\contentsline {subsubsection}{\numberline {7.5.2.1}form\discretionary {-}{}{}Action\discretionary {-}{}{}\_\discretionary {-}{}{}search}{28}{subsubsection.7.5.2.1}
\contentsline {section}{\numberline {7.6}common\discretionary {-}{}{}:\discretionary {-}{}{}:utils\discretionary {-}{}{}:\discretionary {-}{}{}:timer \discretionary {-}{}{}Namespace \discretionary {-}{}{}Reference}{29}{section.7.6}
\contentsline {subsection}{\numberline {7.6.1}\discretionary {-}{}{}Detailed \discretionary {-}{}{}Description}{29}{subsection.7.6.1}
\contentsline {subsection}{\numberline {7.6.2}\discretionary {-}{}{}Variable \discretionary {-}{}{}Documentation}{29}{subsection.7.6.2}
\contentsline {subsubsection}{\numberline {7.6.2.1}\discretionary {-}{}{}P\discretionary {-}{}{}R\discretionary {-}{}{}E\discretionary {-}{}{}C\discretionary {-}{}{}\_\discretionary {-}{}{}\discretionary {-}{}{}M\discretionary {-}{}{}I\discretionary {-}{}{}C\discretionary {-}{}{}R\discretionary {-}{}{}O}{29}{subsubsection.7.6.2.1}
\contentsline {subsubsection}{\numberline {7.6.2.2}\discretionary {-}{}{}P\discretionary {-}{}{}R\discretionary {-}{}{}E\discretionary {-}{}{}C\discretionary {-}{}{}\_\discretionary {-}{}{}\discretionary {-}{}{}M\discretionary {-}{}{}I\discretionary {-}{}{}L\discretionary {-}{}{}I}{29}{subsubsection.7.6.2.2}
\contentsline {subsubsection}{\numberline {7.6.2.3}\discretionary {-}{}{}P\discretionary {-}{}{}R\discretionary {-}{}{}E\discretionary {-}{}{}C\discretionary {-}{}{}\_\discretionary {-}{}{}\discretionary {-}{}{}N\discretionary {-}{}{}A\discretionary {-}{}{}N\discretionary {-}{}{}O}{30}{subsubsection.7.6.2.3}
\contentsline {subsubsection}{\numberline {7.6.2.4}\discretionary {-}{}{}P\discretionary {-}{}{}R\discretionary {-}{}{}E\discretionary {-}{}{}C\discretionary {-}{}{}\_\discretionary {-}{}{}\discretionary {-}{}{}S\discretionary {-}{}{}E\discretionary {-}{}{}C\discretionary {-}{}{}S}{30}{subsubsection.7.6.2.4}
\contentsline {subsubsection}{\numberline {7.6.2.5}\discretionary {-}{}{}P\discretionary {-}{}{}R\discretionary {-}{}{}E\discretionary {-}{}{}C\discretionary {-}{}{}\_\discretionary {-}{}{}\discretionary {-}{}{}U\discretionary {-}{}{}N\discretionary {-}{}{}S\discretionary {-}{}{}E\discretionary {-}{}{}T}{30}{subsubsection.7.6.2.5}
\contentsline {subsubsection}{\numberline {7.6.2.6}\discretionary {-}{}{}T\discretionary {-}{}{}I\discretionary {-}{}{}M\discretionary {-}{}{}E\discretionary {-}{}{}R\discretionary {-}{}{}\_\discretionary {-}{}{}\discretionary {-}{}{}E\discretionary {-}{}{}R\discretionary {-}{}{}R\discretionary {-}{}{}O\discretionary {-}{}{}R}{30}{subsubsection.7.6.2.6}
\contentsline {section}{\numberline {7.7}gui \discretionary {-}{}{}Namespace \discretionary {-}{}{}Reference}{30}{section.7.7}
\contentsline {subsection}{\numberline {7.7.1}\discretionary {-}{}{}Detailed \discretionary {-}{}{}Description}{31}{subsection.7.7.1}
\contentsline {section}{\numberline {7.8}gui\discretionary {-}{}{}:\discretionary {-}{}{}:form \discretionary {-}{}{}Namespace \discretionary {-}{}{}Reference}{31}{section.7.8}
\contentsline {subsection}{\numberline {7.8.1}\discretionary {-}{}{}Detailed \discretionary {-}{}{}Description}{32}{subsection.7.8.1}
\contentsline {subsection}{\numberline {7.8.2}\discretionary {-}{}{}Variable \discretionary {-}{}{}Documentation}{32}{subsection.7.8.2}
\contentsline {subsubsection}{\numberline {7.8.2.1}\discretionary {-}{}{}E\discretionary {-}{}{}M\discretionary {-}{}{}P\discretionary {-}{}{}T\discretionary {-}{}{}Y}{32}{subsubsection.7.8.2.1}
\contentsline {subsubsection}{\numberline {7.8.2.2}\discretionary {-}{}{}G\discretionary {-}{}{}E\discretionary {-}{}{}N\discretionary {-}{}{}\_\discretionary {-}{}{}\discretionary {-}{}{}A\discretionary {-}{}{}D\discretionary {-}{}{}D\discretionary {-}{}{}\_\discretionary {-}{}{}\discretionary {-}{}{}F\discretionary {-}{}{}O\discretionary {-}{}{}R\discretionary {-}{}{}M}{32}{subsubsection.7.8.2.2}
\contentsline {subsubsection}{\numberline {7.8.2.3}\discretionary {-}{}{}G\discretionary {-}{}{}E\discretionary {-}{}{}N\discretionary {-}{}{}\_\discretionary {-}{}{}\discretionary {-}{}{}R\discretionary {-}{}{}E\discretionary {-}{}{}S\discretionary {-}{}{}T\discretionary {-}{}{}O\discretionary {-}{}{}C\discretionary {-}{}{}K\discretionary {-}{}{}\_\discretionary {-}{}{}\discretionary {-}{}{}F\discretionary {-}{}{}O\discretionary {-}{}{}R\discretionary {-}{}{}M}{32}{subsubsection.7.8.2.3}
\contentsline {subsubsection}{\numberline {7.8.2.4}\discretionary {-}{}{}G\discretionary {-}{}{}E\discretionary {-}{}{}N\discretionary {-}{}{}\_\discretionary {-}{}{}\discretionary {-}{}{}S\discretionary {-}{}{}A\discretionary {-}{}{}L\discretionary {-}{}{}E\discretionary {-}{}{}\_\discretionary {-}{}{}\discretionary {-}{}{}F\discretionary {-}{}{}O\discretionary {-}{}{}R\discretionary {-}{}{}M}{32}{subsubsection.7.8.2.4}
\contentsline {subsubsection}{\numberline {7.8.2.5}\discretionary {-}{}{}G\discretionary {-}{}{}E\discretionary {-}{}{}N\discretionary {-}{}{}\_\discretionary {-}{}{}\discretionary {-}{}{}S\discretionary {-}{}{}C\discretionary {-}{}{}R\discretionary {-}{}{}A\discretionary {-}{}{}P\discretionary {-}{}{}\_\discretionary {-}{}{}\discretionary {-}{}{}F\discretionary {-}{}{}O\discretionary {-}{}{}R\discretionary {-}{}{}M}{32}{subsubsection.7.8.2.5}
\contentsline {subsubsection}{\numberline {7.8.2.6}\discretionary {-}{}{}G\discretionary {-}{}{}E\discretionary {-}{}{}N\discretionary {-}{}{}\_\discretionary {-}{}{}\discretionary {-}{}{}S\discretionary {-}{}{}E\discretionary {-}{}{}A\discretionary {-}{}{}R\discretionary {-}{}{}C\discretionary {-}{}{}H\discretionary {-}{}{}\_\discretionary {-}{}{}\discretionary {-}{}{}F\discretionary {-}{}{}O\discretionary {-}{}{}R\discretionary {-}{}{}M}{32}{subsubsection.7.8.2.6}
\contentsline {subsubsection}{\numberline {7.8.2.7}\discretionary {-}{}{}G\discretionary {-}{}{}E\discretionary {-}{}{}N\discretionary {-}{}{}\_\discretionary {-}{}{}\discretionary {-}{}{}S\discretionary {-}{}{}T\discretionary {-}{}{}A\discretionary {-}{}{}T\discretionary {-}{}{}S\discretionary {-}{}{}\_\discretionary {-}{}{}\discretionary {-}{}{}F\discretionary {-}{}{}O\discretionary {-}{}{}R\discretionary {-}{}{}M}{32}{subsubsection.7.8.2.7}
\contentsline {section}{\numberline {7.9}logic \discretionary {-}{}{}Namespace \discretionary {-}{}{}Reference}{32}{section.7.9}
\contentsline {subsection}{\numberline {7.9.1}\discretionary {-}{}{}Detailed \discretionary {-}{}{}Description}{33}{subsection.7.9.1}
\contentsline {subsection}{\numberline {7.9.2}\discretionary {-}{}{}Variable \discretionary {-}{}{}Documentation}{33}{subsection.7.9.2}
\contentsline {subsubsection}{\numberline {7.9.2.1}\discretionary {-}{}{}P\discretionary {-}{}{}R\discretionary {-}{}{}O\discretionary {-}{}{}D\discretionary {-}{}{}\_\discretionary {-}{}{}\discretionary {-}{}{}B\discretionary {-}{}{}A\discretionary {-}{}{}R\discretionary {-}{}{}C\discretionary {-}{}{}O\discretionary {-}{}{}D\discretionary {-}{}{}E}{33}{subsubsection.7.9.2.1}
\contentsline {subsubsection}{\numberline {7.9.2.2}\discretionary {-}{}{}P\discretionary {-}{}{}R\discretionary {-}{}{}O\discretionary {-}{}{}D\discretionary {-}{}{}\_\discretionary {-}{}{}\discretionary {-}{}{}C\discretionary {-}{}{}A\discretionary {-}{}{}T}{34}{subsubsection.7.9.2.2}
\contentsline {subsubsection}{\numberline {7.9.2.3}\discretionary {-}{}{}P\discretionary {-}{}{}R\discretionary {-}{}{}O\discretionary {-}{}{}D\discretionary {-}{}{}\_\discretionary {-}{}{}\discretionary {-}{}{}M\discretionary {-}{}{}A\discretionary {-}{}{}N\discretionary {-}{}{}U\discretionary {-}{}{}F\discretionary {-}{}{}A\discretionary {-}{}{}C\discretionary {-}{}{}T\discretionary {-}{}{}U\discretionary {-}{}{}R\discretionary {-}{}{}E\discretionary {-}{}{}R}{34}{subsubsection.7.9.2.3}
\contentsline {subsubsection}{\numberline {7.9.2.4}\discretionary {-}{}{}P\discretionary {-}{}{}R\discretionary {-}{}{}O\discretionary {-}{}{}D\discretionary {-}{}{}\_\discretionary {-}{}{}\discretionary {-}{}{}N\discretionary {-}{}{}A\discretionary {-}{}{}M\discretionary {-}{}{}E}{34}{subsubsection.7.9.2.4}
\contentsline {subsubsection}{\numberline {7.9.2.5}\discretionary {-}{}{}P\discretionary {-}{}{}R\discretionary {-}{}{}O\discretionary {-}{}{}D\discretionary {-}{}{}\_\discretionary {-}{}{}\discretionary {-}{}{}P\discretionary {-}{}{}R\discretionary {-}{}{}I\discretionary {-}{}{}C\discretionary {-}{}{}E}{34}{subsubsection.7.9.2.5}
\contentsline {subsubsection}{\numberline {7.9.2.6}\discretionary {-}{}{}P\discretionary {-}{}{}R\discretionary {-}{}{}O\discretionary {-}{}{}D\discretionary {-}{}{}\_\discretionary {-}{}{}\discretionary {-}{}{}R\discretionary {-}{}{}E\discretionary {-}{}{}S\discretionary {-}{}{}T\discretionary {-}{}{}O\discretionary {-}{}{}C\discretionary {-}{}{}K}{34}{subsubsection.7.9.2.6}
\contentsline {subsubsection}{\numberline {7.9.2.7}\discretionary {-}{}{}P\discretionary {-}{}{}R\discretionary {-}{}{}O\discretionary {-}{}{}D\discretionary {-}{}{}\_\discretionary {-}{}{}\discretionary {-}{}{}S\discretionary {-}{}{}O\discretionary {-}{}{}L\discretionary {-}{}{}D}{34}{subsubsection.7.9.2.7}
\contentsline {subsubsection}{\numberline {7.9.2.8}\discretionary {-}{}{}P\discretionary {-}{}{}R\discretionary {-}{}{}O\discretionary {-}{}{}D\discretionary {-}{}{}\_\discretionary {-}{}{}\discretionary {-}{}{}S\discretionary {-}{}{}T\discretionary {-}{}{}O\discretionary {-}{}{}C\discretionary {-}{}{}K}{34}{subsubsection.7.9.2.8}
\contentsline {subsubsection}{\numberline {7.9.2.9}\discretionary {-}{}{}P\discretionary {-}{}{}R\discretionary {-}{}{}O\discretionary {-}{}{}D\discretionary {-}{}{}\_\discretionary {-}{}{}\discretionary {-}{}{}S\discretionary {-}{}{}U\discretionary {-}{}{}B\discretionary {-}{}{}M\discretionary {-}{}{}I\discretionary {-}{}{}T}{34}{subsubsection.7.9.2.9}
\contentsline {section}{\numberline {7.10}logic\discretionary {-}{}{}:\discretionary {-}{}{}:adt \discretionary {-}{}{}Namespace \discretionary {-}{}{}Reference}{34}{section.7.10}
\contentsline {subsection}{\numberline {7.10.1}\discretionary {-}{}{}Detailed \discretionary {-}{}{}Description}{35}{subsection.7.10.1}
\contentsline {subsection}{\numberline {7.10.2}\discretionary {-}{}{}Variable \discretionary {-}{}{}Documentation}{35}{subsection.7.10.2}
\contentsline {subsubsection}{\numberline {7.10.2.1}\discretionary {-}{}{}S\discretionary {-}{}{}O\discretionary {-}{}{}R\discretionary {-}{}{}T\discretionary {-}{}{}\_\discretionary {-}{}{}\discretionary {-}{}{}A\discretionary {-}{}{}S\discretionary {-}{}{}C\discretionary {-}{}{}E\discretionary {-}{}{}N\discretionary {-}{}{}D\discretionary {-}{}{}I\discretionary {-}{}{}N\discretionary {-}{}{}G}{35}{subsubsection.7.10.2.1}
\contentsline {subsubsection}{\numberline {7.10.2.2}\discretionary {-}{}{}S\discretionary {-}{}{}O\discretionary {-}{}{}R\discretionary {-}{}{}T\discretionary {-}{}{}\_\discretionary {-}{}{}\discretionary {-}{}{}D\discretionary {-}{}{}E\discretionary {-}{}{}S\discretionary {-}{}{}C\discretionary {-}{}{}E\discretionary {-}{}{}N\discretionary {-}{}{}D\discretionary {-}{}{}I\discretionary {-}{}{}N\discretionary {-}{}{}G}{35}{subsubsection.7.10.2.2}
\contentsline {chapter}{\numberline {8}\discretionary {-}{}{}Class \discretionary {-}{}{}Documentation}{37}{chapter.8}
\contentsline {section}{\numberline {8.1}common\discretionary {-}{}{}:\discretionary {-}{}{}:\discretionary {-}{}{}Interface \discretionary {-}{}{}Class \discretionary {-}{}{}Reference}{37}{section.8.1}
\contentsline {subsection}{\numberline {8.1.1}\discretionary {-}{}{}Detailed \discretionary {-}{}{}Description}{38}{subsection.8.1.1}
\contentsline {subsection}{\numberline {8.1.2}\discretionary {-}{}{}Member \discretionary {-}{}{}Function \discretionary {-}{}{}Documentation}{38}{subsection.8.1.2}
\contentsline {subsubsection}{\numberline {8.1.2.1}get\discretionary {-}{}{}\_\discretionary {-}{}{}instance}{38}{subsubsection.8.1.2.1}
\contentsline {subsubsection}{\numberline {8.1.2.2}gui\discretionary {-}{}{}To\discretionary {-}{}{}Log\discretionary {-}{}{}\_\discretionary {-}{}{}add\discretionary {-}{}{}\_\discretionary {-}{}{}item}{39}{subsubsection.8.1.2.2}
\contentsline {subsubsection}{\numberline {8.1.2.3}gui\discretionary {-}{}{}To\discretionary {-}{}{}Log\discretionary {-}{}{}\_\discretionary {-}{}{}best\discretionary {-}{}{}\_\discretionary {-}{}{}manufacturer}{39}{subsubsection.8.1.2.3}
\contentsline {subsubsection}{\numberline {8.1.2.4}gui\discretionary {-}{}{}To\discretionary {-}{}{}Log\discretionary {-}{}{}\_\discretionary {-}{}{}best\discretionary {-}{}{}\_\discretionary {-}{}{}product}{39}{subsubsection.8.1.2.4}
\contentsline {subsubsection}{\numberline {8.1.2.5}gui\discretionary {-}{}{}To\discretionary {-}{}{}Log\discretionary {-}{}{}\_\discretionary {-}{}{}best\discretionary {-}{}{}\_\discretionary {-}{}{}product\discretionary {-}{}{}\_\discretionary {-}{}{}category}{40}{subsubsection.8.1.2.5}
\contentsline {subsubsection}{\numberline {8.1.2.6}gui\discretionary {-}{}{}To\discretionary {-}{}{}Log\discretionary {-}{}{}\_\discretionary {-}{}{}restock\discretionary {-}{}{}\_\discretionary {-}{}{}item}{40}{subsubsection.8.1.2.6}
\contentsline {subsubsection}{\numberline {8.1.2.7}gui\discretionary {-}{}{}To\discretionary {-}{}{}Log\discretionary {-}{}{}\_\discretionary {-}{}{}run\discretionary {-}{}{}\_\discretionary {-}{}{}batch}{41}{subsubsection.8.1.2.7}
\contentsline {subsubsection}{\numberline {8.1.2.8}gui\discretionary {-}{}{}To\discretionary {-}{}{}Log\discretionary {-}{}{}\_\discretionary {-}{}{}scrap\discretionary {-}{}{}\_\discretionary {-}{}{}item}{41}{subsubsection.8.1.2.8}
\contentsline {subsubsection}{\numberline {8.1.2.9}gui\discretionary {-}{}{}To\discretionary {-}{}{}Log\discretionary {-}{}{}\_\discretionary {-}{}{}search\discretionary {-}{}{}\_\discretionary {-}{}{}terms}{42}{subsubsection.8.1.2.9}
\contentsline {subsubsection}{\numberline {8.1.2.10}gui\discretionary {-}{}{}To\discretionary {-}{}{}Log\discretionary {-}{}{}\_\discretionary {-}{}{}specify\discretionary {-}{}{}\_\discretionary {-}{}{}sales}{43}{subsubsection.8.1.2.10}
\contentsline {subsubsection}{\numberline {8.1.2.11}gui\discretionary {-}{}{}To\discretionary {-}{}{}Log\discretionary {-}{}{}\_\discretionary {-}{}{}toggle\discretionary {-}{}{}\_\discretionary {-}{}{}db\discretionary {-}{}{}Mode}{43}{subsubsection.8.1.2.11}
\contentsline {subsubsection}{\numberline {8.1.2.12}gui\discretionary {-}{}{}To\discretionary {-}{}{}Log\discretionary {-}{}{}\_\discretionary {-}{}{}validate\discretionary {-}{}{}\_\discretionary {-}{}{}unique}{44}{subsubsection.8.1.2.12}
\contentsline {subsubsection}{\numberline {8.1.2.13}log\discretionary {-}{}{}To\discretionary {-}{}{}Gui\discretionary {-}{}{}\_\discretionary {-}{}{}load\discretionary {-}{}{}\_\discretionary {-}{}{}file}{44}{subsubsection.8.1.2.13}
\contentsline {subsubsection}{\numberline {8.1.2.14}log\discretionary {-}{}{}To\discretionary {-}{}{}Gui\discretionary {-}{}{}\_\discretionary {-}{}{}redraw\discretionary {-}{}{}\_\discretionary {-}{}{}screen}{45}{subsubsection.8.1.2.14}
\contentsline {subsubsection}{\numberline {8.1.2.15}log\discretionary {-}{}{}To\discretionary {-}{}{}Gui\discretionary {-}{}{}\_\discretionary {-}{}{}update\discretionary {-}{}{}\_\discretionary {-}{}{}status}{45}{subsubsection.8.1.2.15}
\contentsline {subsubsection}{\numberline {8.1.2.16}quit}{46}{subsubsection.8.1.2.16}
\contentsline {subsubsection}{\numberline {8.1.2.17}start}{47}{subsubsection.8.1.2.17}
\contentsline {subsubsection}{\numberline {8.1.2.18}wait}{47}{subsubsection.8.1.2.18}
\contentsline {section}{\numberline {8.2}common\discretionary {-}{}{}:\discretionary {-}{}{}:\discretionary {-}{}{}Print\discretionary {-}{}{}Object \discretionary {-}{}{}Class \discretionary {-}{}{}Reference}{47}{section.8.2}
\contentsline {subsection}{\numberline {8.2.1}\discretionary {-}{}{}Detailed \discretionary {-}{}{}Description}{48}{subsection.8.2.1}
\contentsline {subsection}{\numberline {8.2.2}\discretionary {-}{}{}Constructor \& \discretionary {-}{}{}Destructor \discretionary {-}{}{}Documentation}{49}{subsection.8.2.2}
\contentsline {subsubsection}{\numberline {8.2.2.1}\discretionary {-}{}{}Print\discretionary {-}{}{}Object}{49}{subsubsection.8.2.2.1}
\contentsline {subsubsection}{\numberline {8.2.2.2}$\sim $\discretionary {-}{}{}Print\discretionary {-}{}{}Object}{49}{subsubsection.8.2.2.2}
\contentsline {subsection}{\numberline {8.2.3}\discretionary {-}{}{}Member \discretionary {-}{}{}Function \discretionary {-}{}{}Documentation}{49}{subsection.8.2.3}
\contentsline {subsubsection}{\numberline {8.2.3.1}copy}{49}{subsubsection.8.2.3.1}
\contentsline {subsubsection}{\numberline {8.2.3.2}get\discretionary {-}{}{}\_\discretionary {-}{}{}field}{50}{subsubsection.8.2.3.2}
\contentsline {subsubsection}{\numberline {8.2.3.3}get\discretionary {-}{}{}\_\discretionary {-}{}{}field}{50}{subsubsection.8.2.3.3}
\contentsline {subsubsection}{\numberline {8.2.3.4}get\discretionary {-}{}{}\_\discretionary {-}{}{}mask\discretionary {-}{}{}\_\discretionary {-}{}{}at}{51}{subsubsection.8.2.3.4}
\contentsline {subsubsection}{\numberline {8.2.3.5}get\discretionary {-}{}{}\_\discretionary {-}{}{}max\discretionary {-}{}{}\_\discretionary {-}{}{}fields}{51}{subsubsection.8.2.3.5}
\contentsline {subsubsection}{\numberline {8.2.3.6}get\discretionary {-}{}{}\_\discretionary {-}{}{}max\discretionary {-}{}{}\_\discretionary {-}{}{}fields}{51}{subsubsection.8.2.3.6}
\contentsline {subsubsection}{\numberline {8.2.3.7}get\discretionary {-}{}{}\_\discretionary {-}{}{}size}{51}{subsubsection.8.2.3.7}
\contentsline {subsubsection}{\numberline {8.2.3.8}get\discretionary {-}{}{}\_\discretionary {-}{}{}size}{51}{subsubsection.8.2.3.8}
\contentsline {subsubsection}{\numberline {8.2.3.9}insert}{51}{subsubsection.8.2.3.9}
\contentsline {subsubsection}{\numberline {8.2.3.10}insert\discretionary {-}{}{}\_\discretionary {-}{}{}at}{52}{subsubsection.8.2.3.10}
\contentsline {subsubsection}{\numberline {8.2.3.11}make\discretionary {-}{}{}\_\discretionary {-}{}{}headers}{52}{subsubsection.8.2.3.11}
\contentsline {subsubsection}{\numberline {8.2.3.12}pretty\discretionary {-}{}{}\_\discretionary {-}{}{}print}{52}{subsubsection.8.2.3.12}
\contentsline {subsubsection}{\numberline {8.2.3.13}set\discretionary {-}{}{}\_\discretionary {-}{}{}mask\discretionary {-}{}{}\_\discretionary {-}{}{}at}{53}{subsubsection.8.2.3.13}
\contentsline {section}{\numberline {8.3}common\discretionary {-}{}{}:\discretionary {-}{}{}:utils\discretionary {-}{}{}:\discretionary {-}{}{}:\discretionary {-}{}{}Timer \discretionary {-}{}{}Class \discretionary {-}{}{}Reference}{53}{section.8.3}
\contentsline {subsection}{\numberline {8.3.1}\discretionary {-}{}{}Detailed \discretionary {-}{}{}Description}{54}{subsection.8.3.1}
\contentsline {subsection}{\numberline {8.3.2}\discretionary {-}{}{}Constructor \& \discretionary {-}{}{}Destructor \discretionary {-}{}{}Documentation}{55}{subsection.8.3.2}
\contentsline {subsubsection}{\numberline {8.3.2.1}\discretionary {-}{}{}Timer}{55}{subsubsection.8.3.2.1}
\contentsline {subsubsection}{\numberline {8.3.2.2}$\sim $\discretionary {-}{}{}Timer}{55}{subsubsection.8.3.2.2}
\contentsline {subsection}{\numberline {8.3.3}\discretionary {-}{}{}Member \discretionary {-}{}{}Function \discretionary {-}{}{}Documentation}{55}{subsection.8.3.3}
\contentsline {subsubsection}{\numberline {8.3.3.1}elapsed\discretionary {-}{}{}Time}{55}{subsubsection.8.3.3.1}
\contentsline {subsubsection}{\numberline {8.3.3.2}elapsed\discretionary {-}{}{}Time\discretionary {-}{}{}Str}{55}{subsubsection.8.3.3.2}
\contentsline {subsubsection}{\numberline {8.3.3.3}end}{56}{subsubsection.8.3.3.3}
\contentsline {subsubsection}{\numberline {8.3.3.4}get\discretionary {-}{}{}\_\discretionary {-}{}{}precision}{56}{subsubsection.8.3.3.4}
\contentsline {subsubsection}{\numberline {8.3.3.5}is\discretionary {-}{}{}\_\discretionary {-}{}{}started}{56}{subsubsection.8.3.3.5}
\contentsline {subsubsection}{\numberline {8.3.3.6}reset}{57}{subsubsection.8.3.3.6}
\contentsline {subsubsection}{\numberline {8.3.3.7}set\discretionary {-}{}{}\_\discretionary {-}{}{}precision}{57}{subsubsection.8.3.3.7}
\contentsline {subsubsection}{\numberline {8.3.3.8}start}{57}{subsubsection.8.3.3.8}
\contentsline {section}{\numberline {8.4}gui\discretionary {-}{}{}:\discretionary {-}{}{}:form\discretionary {-}{}{}:\discretionary {-}{}{}:\discretionary {-}{}{}Button \discretionary {-}{}{}Class \discretionary {-}{}{}Reference}{57}{section.8.4}
\contentsline {subsection}{\numberline {8.4.1}\discretionary {-}{}{}Detailed \discretionary {-}{}{}Description}{59}{subsection.8.4.1}
\contentsline {subsection}{\numberline {8.4.2}\discretionary {-}{}{}Constructor \& \discretionary {-}{}{}Destructor \discretionary {-}{}{}Documentation}{59}{subsection.8.4.2}
\contentsline {subsubsection}{\numberline {8.4.2.1}\discretionary {-}{}{}Button}{59}{subsubsection.8.4.2.1}
\contentsline {subsubsection}{\numberline {8.4.2.2}$\sim $\discretionary {-}{}{}Button}{59}{subsubsection.8.4.2.2}
\contentsline {subsection}{\numberline {8.4.3}\discretionary {-}{}{}Member \discretionary {-}{}{}Function \discretionary {-}{}{}Documentation}{59}{subsection.8.4.3}
\contentsline {subsubsection}{\numberline {8.4.3.1}focus}{59}{subsubsection.8.4.3.1}
\contentsline {subsubsection}{\numberline {8.4.3.2}focus}{60}{subsubsection.8.4.3.2}
\contentsline {subsubsection}{\numberline {8.4.3.3}get\discretionary {-}{}{}\_\discretionary {-}{}{}data}{61}{subsubsection.8.4.3.3}
\contentsline {subsubsection}{\numberline {8.4.3.4}remove\discretionary {-}{}{}\_\discretionary {-}{}{}action}{61}{subsubsection.8.4.3.4}
\contentsline {subsubsection}{\numberline {8.4.3.5}set\discretionary {-}{}{}\_\discretionary {-}{}{}action}{61}{subsubsection.8.4.3.5}
\contentsline {section}{\numberline {8.5}gui\discretionary {-}{}{}:\discretionary {-}{}{}:form\discretionary {-}{}{}:\discretionary {-}{}{}:\discretionary {-}{}{}Form \discretionary {-}{}{}Class \discretionary {-}{}{}Reference}{61}{section.8.5}
\contentsline {subsection}{\numberline {8.5.1}\discretionary {-}{}{}Detailed \discretionary {-}{}{}Description}{62}{subsection.8.5.1}
\contentsline {subsection}{\numberline {8.5.2}\discretionary {-}{}{}Constructor \& \discretionary {-}{}{}Destructor \discretionary {-}{}{}Documentation}{63}{subsection.8.5.2}
\contentsline {subsubsection}{\numberline {8.5.2.1}\discretionary {-}{}{}Form}{63}{subsubsection.8.5.2.1}
\contentsline {subsubsection}{\numberline {8.5.2.2}$\sim $\discretionary {-}{}{}Form}{63}{subsubsection.8.5.2.2}
\contentsline {subsection}{\numberline {8.5.3}\discretionary {-}{}{}Member \discretionary {-}{}{}Function \discretionary {-}{}{}Documentation}{63}{subsection.8.5.3}
\contentsline {subsubsection}{\numberline {8.5.3.1}get\discretionary {-}{}{}\_\discretionary {-}{}{}data}{63}{subsubsection.8.5.3.1}
\contentsline {subsubsection}{\numberline {8.5.3.2}go\discretionary {-}{}{}\_\discretionary {-}{}{}next}{64}{subsubsection.8.5.3.2}
\contentsline {subsubsection}{\numberline {8.5.3.3}go\discretionary {-}{}{}\_\discretionary {-}{}{}prev}{64}{subsubsection.8.5.3.3}
\contentsline {subsubsection}{\numberline {8.5.3.4}pop}{64}{subsubsection.8.5.3.4}
\contentsline {subsubsection}{\numberline {8.5.3.5}push}{64}{subsubsection.8.5.3.5}
\contentsline {subsubsection}{\numberline {8.5.3.6}push\discretionary {-}{}{}\_\discretionary {-}{}{}btn}{64}{subsubsection.8.5.3.6}
\contentsline {subsubsection}{\numberline {8.5.3.7}push\discretionary {-}{}{}\_\discretionary {-}{}{}btn}{64}{subsubsection.8.5.3.7}
\contentsline {subsubsection}{\numberline {8.5.3.8}push\discretionary {-}{}{}\_\discretionary {-}{}{}field}{65}{subsubsection.8.5.3.8}
\contentsline {subsubsection}{\numberline {8.5.3.9}push\discretionary {-}{}{}\_\discretionary {-}{}{}static\discretionary {-}{}{}\_\discretionary {-}{}{}label}{65}{subsubsection.8.5.3.9}
\contentsline {subsubsection}{\numberline {8.5.3.10}set\discretionary {-}{}{}\_\discretionary {-}{}{}yx}{66}{subsubsection.8.5.3.10}
\contentsline {subsubsection}{\numberline {8.5.3.11}set\discretionary {-}{}{}\_\discretionary {-}{}{}yx\discretionary {-}{}{}\_\discretionary {-}{}{}center}{66}{subsubsection.8.5.3.11}
\contentsline {subsubsection}{\numberline {8.5.3.12}start}{66}{subsubsection.8.5.3.12}
\contentsline {section}{\numberline {8.6}gui\discretionary {-}{}{}:\discretionary {-}{}{}:form\discretionary {-}{}{}:\discretionary {-}{}{}:\discretionary {-}{}{}Form\discretionary {-}{}{}Factory \discretionary {-}{}{}Class \discretionary {-}{}{}Reference}{66}{section.8.6}
\contentsline {subsection}{\numberline {8.6.1}\discretionary {-}{}{}Detailed \discretionary {-}{}{}Description}{67}{subsection.8.6.1}
\contentsline {subsection}{\numberline {8.6.2}\discretionary {-}{}{}Constructor \& \discretionary {-}{}{}Destructor \discretionary {-}{}{}Documentation}{67}{subsection.8.6.2}
\contentsline {subsubsection}{\numberline {8.6.2.1}\discretionary {-}{}{}Form\discretionary {-}{}{}Factory}{67}{subsubsection.8.6.2.1}
\contentsline {subsubsection}{\numberline {8.6.2.2}\discretionary {-}{}{}Form\discretionary {-}{}{}Factory}{67}{subsubsection.8.6.2.2}
\contentsline {subsubsection}{\numberline {8.6.2.3}$\sim $\discretionary {-}{}{}Form\discretionary {-}{}{}Factory}{67}{subsubsection.8.6.2.3}
\contentsline {subsection}{\numberline {8.6.3}\discretionary {-}{}{}Member \discretionary {-}{}{}Function \discretionary {-}{}{}Documentation}{67}{subsection.8.6.3}
\contentsline {subsubsection}{\numberline {8.6.3.1}generate}{68}{subsubsection.8.6.3.1}
\contentsline {subsubsection}{\numberline {8.6.3.2}set\discretionary {-}{}{}\_\discretionary {-}{}{}root}{69}{subsubsection.8.6.3.2}
\contentsline {section}{\numberline {8.7}gui\discretionary {-}{}{}:\discretionary {-}{}{}:form\discretionary {-}{}{}:\discretionary {-}{}{}:\discretionary {-}{}{}Form\discretionary {-}{}{}U\discretionary {-}{}{}I \discretionary {-}{}{}Class \discretionary {-}{}{}Reference}{69}{section.8.7}
\contentsline {subsection}{\numberline {8.7.1}\discretionary {-}{}{}Detailed \discretionary {-}{}{}Description}{71}{subsection.8.7.1}
\contentsline {subsection}{\numberline {8.7.2}\discretionary {-}{}{}Constructor \& \discretionary {-}{}{}Destructor \discretionary {-}{}{}Documentation}{71}{subsection.8.7.2}
\contentsline {subsubsection}{\numberline {8.7.2.1}\discretionary {-}{}{}Form\discretionary {-}{}{}U\discretionary {-}{}{}I}{71}{subsubsection.8.7.2.1}
\contentsline {subsubsection}{\numberline {8.7.2.2}$\sim $\discretionary {-}{}{}Form\discretionary {-}{}{}U\discretionary {-}{}{}I}{71}{subsubsection.8.7.2.2}
\contentsline {subsection}{\numberline {8.7.3}\discretionary {-}{}{}Member \discretionary {-}{}{}Function \discretionary {-}{}{}Documentation}{71}{subsection.8.7.3}
\contentsline {subsubsection}{\numberline {8.7.3.1}focus}{71}{subsubsection.8.7.3.1}
\contentsline {subsubsection}{\numberline {8.7.3.2}focus}{72}{subsubsection.8.7.3.2}
\contentsline {subsubsection}{\numberline {8.7.3.3}get\discretionary {-}{}{}\_\discretionary {-}{}{}data}{72}{subsubsection.8.7.3.3}
\contentsline {subsubsection}{\numberline {8.7.3.4}get\discretionary {-}{}{}\_\discretionary {-}{}{}height}{72}{subsubsection.8.7.3.4}
\contentsline {subsubsection}{\numberline {8.7.3.5}get\discretionary {-}{}{}\_\discretionary {-}{}{}id}{72}{subsubsection.8.7.3.5}
\contentsline {subsubsection}{\numberline {8.7.3.6}get\discretionary {-}{}{}\_\discretionary {-}{}{}width}{73}{subsubsection.8.7.3.6}
\contentsline {subsubsection}{\numberline {8.7.3.7}get\discretionary {-}{}{}\_\discretionary {-}{}{}x}{73}{subsubsection.8.7.3.7}
\contentsline {subsubsection}{\numberline {8.7.3.8}get\discretionary {-}{}{}\_\discretionary {-}{}{}y}{73}{subsubsection.8.7.3.8}
\contentsline {subsubsection}{\numberline {8.7.3.9}set\discretionary {-}{}{}\_\discretionary {-}{}{}yx}{73}{subsubsection.8.7.3.9}
\contentsline {subsection}{\numberline {8.7.4}\discretionary {-}{}{}Member \discretionary {-}{}{}Data \discretionary {-}{}{}Documentation}{73}{subsection.8.7.4}
\contentsline {subsubsection}{\numberline {8.7.4.1}\discretionary {-}{}{}\_\discretionary {-}{}{}\discretionary {-}{}{}F\discretionary {-}{}{}O\discretionary {-}{}{}R\discretionary {-}{}{}M}{73}{subsubsection.8.7.4.1}
\contentsline {subsubsection}{\numberline {8.7.4.2}\discretionary {-}{}{}\_\discretionary {-}{}{}\discretionary {-}{}{}W\discretionary {-}{}{}I\discretionary {-}{}{}N\discretionary {-}{}{}\_\discretionary {-}{}{}\discretionary {-}{}{}S\discretionary {-}{}{}E\discretionary {-}{}{}L\discretionary {-}{}{}F}{73}{subsubsection.8.7.4.2}
\contentsline {section}{\numberline {8.8}gui\discretionary {-}{}{}:\discretionary {-}{}{}:form\discretionary {-}{}{}:\discretionary {-}{}{}:\discretionary {-}{}{}Text\discretionary {-}{}{}Field \discretionary {-}{}{}Class \discretionary {-}{}{}Reference}{74}{section.8.8}
\contentsline {subsection}{\numberline {8.8.1}\discretionary {-}{}{}Detailed \discretionary {-}{}{}Description}{75}{subsection.8.8.1}
\contentsline {subsection}{\numberline {8.8.2}\discretionary {-}{}{}Constructor \& \discretionary {-}{}{}Destructor \discretionary {-}{}{}Documentation}{76}{subsection.8.8.2}
\contentsline {subsubsection}{\numberline {8.8.2.1}\discretionary {-}{}{}Text\discretionary {-}{}{}Field}{76}{subsubsection.8.8.2.1}
\contentsline {subsubsection}{\numberline {8.8.2.2}$\sim $\discretionary {-}{}{}Text\discretionary {-}{}{}Field}{76}{subsubsection.8.8.2.2}
\contentsline {subsection}{\numberline {8.8.3}\discretionary {-}{}{}Member \discretionary {-}{}{}Function \discretionary {-}{}{}Documentation}{76}{subsection.8.8.3}
\contentsline {subsubsection}{\numberline {8.8.3.1}focus}{76}{subsubsection.8.8.3.1}
\contentsline {subsubsection}{\numberline {8.8.3.2}get\discretionary {-}{}{}\_\discretionary {-}{}{}data}{77}{subsubsection.8.8.3.2}
\contentsline {subsubsection}{\numberline {8.8.3.3}get\discretionary {-}{}{}\_\discretionary {-}{}{}id}{77}{subsubsection.8.8.3.3}
\contentsline {section}{\numberline {8.9}gui\discretionary {-}{}{}:\discretionary {-}{}{}:form\discretionary {-}{}{}:\discretionary {-}{}{}:\discretionary {-}{}{}U\discretionary {-}{}{}I\discretionary {-}{}{}Text \discretionary {-}{}{}Class \discretionary {-}{}{}Reference}{77}{section.8.9}
\contentsline {subsection}{\numberline {8.9.1}\discretionary {-}{}{}Detailed \discretionary {-}{}{}Description}{79}{subsection.8.9.1}
\contentsline {subsection}{\numberline {8.9.2}\discretionary {-}{}{}Constructor \& \discretionary {-}{}{}Destructor \discretionary {-}{}{}Documentation}{79}{subsection.8.9.2}
\contentsline {subsubsection}{\numberline {8.9.2.1}\discretionary {-}{}{}U\discretionary {-}{}{}I\discretionary {-}{}{}Text}{79}{subsubsection.8.9.2.1}
\contentsline {subsubsection}{\numberline {8.9.2.2}$\sim $\discretionary {-}{}{}U\discretionary {-}{}{}I\discretionary {-}{}{}Text}{79}{subsubsection.8.9.2.2}
\contentsline {subsection}{\numberline {8.9.3}\discretionary {-}{}{}Member \discretionary {-}{}{}Function \discretionary {-}{}{}Documentation}{79}{subsection.8.9.3}
\contentsline {subsubsection}{\numberline {8.9.3.1}focus}{79}{subsubsection.8.9.3.1}
\contentsline {subsubsection}{\numberline {8.9.3.2}get\discretionary {-}{}{}\_\discretionary {-}{}{}label}{80}{subsubsection.8.9.3.2}
\contentsline {subsubsection}{\numberline {8.9.3.3}set\discretionary {-}{}{}\_\discretionary {-}{}{}label}{80}{subsubsection.8.9.3.3}
\contentsline {section}{\numberline {8.10}gui\discretionary {-}{}{}:\discretionary {-}{}{}:\discretionary {-}{}{}Gui \discretionary {-}{}{}Class \discretionary {-}{}{}Reference}{80}{section.8.10}
\contentsline {subsection}{\numberline {8.10.1}\discretionary {-}{}{}Detailed \discretionary {-}{}{}Description}{81}{subsection.8.10.1}
\contentsline {subsection}{\numberline {8.10.2}\discretionary {-}{}{}Constructor \& \discretionary {-}{}{}Destructor \discretionary {-}{}{}Documentation}{81}{subsection.8.10.2}
\contentsline {subsubsection}{\numberline {8.10.2.1}\discretionary {-}{}{}Gui}{81}{subsubsection.8.10.2.1}
\contentsline {subsubsection}{\numberline {8.10.2.2}$\sim $\discretionary {-}{}{}Gui}{82}{subsubsection.8.10.2.2}
\contentsline {subsection}{\numberline {8.10.3}\discretionary {-}{}{}Member \discretionary {-}{}{}Function \discretionary {-}{}{}Documentation}{82}{subsection.8.10.3}
\contentsline {subsubsection}{\numberline {8.10.3.1}clear\discretionary {-}{}{}\_\discretionary {-}{}{}scroll\discretionary {-}{}{}List}{82}{subsubsection.8.10.3.1}
\contentsline {subsubsection}{\numberline {8.10.3.2}get\discretionary {-}{}{}\_\discretionary {-}{}{}scr}{82}{subsubsection.8.10.3.2}
\contentsline {subsubsection}{\numberline {8.10.3.3}proc\discretionary {-}{}{}\_\discretionary {-}{}{}action}{82}{subsubsection.8.10.3.3}
\contentsline {subsubsection}{\numberline {8.10.3.4}quit}{82}{subsubsection.8.10.3.4}
\contentsline {subsubsection}{\numberline {8.10.3.5}redraw}{82}{subsubsection.8.10.3.5}
\contentsline {subsubsection}{\numberline {8.10.3.6}start}{82}{subsubsection.8.10.3.6}
\contentsline {subsubsection}{\numberline {8.10.3.7}status\discretionary {-}{}{}\_\discretionary {-}{}{}print}{83}{subsubsection.8.10.3.7}
\contentsline {subsubsection}{\numberline {8.10.3.8}update\discretionary {-}{}{}\_\discretionary {-}{}{}scroll\discretionary {-}{}{}List}{83}{subsubsection.8.10.3.8}
\contentsline {section}{\numberline {8.11}gui\discretionary {-}{}{}:\discretionary {-}{}{}:\discretionary {-}{}{}Header \discretionary {-}{}{}Class \discretionary {-}{}{}Reference}{83}{section.8.11}
\contentsline {subsection}{\numberline {8.11.1}\discretionary {-}{}{}Detailed \discretionary {-}{}{}Description}{84}{subsection.8.11.1}
\contentsline {subsection}{\numberline {8.11.2}\discretionary {-}{}{}Constructor \& \discretionary {-}{}{}Destructor \discretionary {-}{}{}Documentation}{84}{subsection.8.11.2}
\contentsline {subsubsection}{\numberline {8.11.2.1}\discretionary {-}{}{}Header}{84}{subsubsection.8.11.2.1}
\contentsline {subsubsection}{\numberline {8.11.2.2}$\sim $\discretionary {-}{}{}Header}{85}{subsubsection.8.11.2.2}
\contentsline {subsection}{\numberline {8.11.3}\discretionary {-}{}{}Member \discretionary {-}{}{}Function \discretionary {-}{}{}Documentation}{85}{subsection.8.11.3}
\contentsline {subsubsection}{\numberline {8.11.3.1}get\discretionary {-}{}{}\_\discretionary {-}{}{}height}{85}{subsubsection.8.11.3.1}
\contentsline {subsubsection}{\numberline {8.11.3.2}get\discretionary {-}{}{}\_\discretionary {-}{}{}width}{85}{subsubsection.8.11.3.2}
\contentsline {subsubsection}{\numberline {8.11.3.3}get\discretionary {-}{}{}\_\discretionary {-}{}{}x}{85}{subsubsection.8.11.3.3}
\contentsline {subsubsection}{\numberline {8.11.3.4}get\discretionary {-}{}{}\_\discretionary {-}{}{}y}{86}{subsubsection.8.11.3.4}
\contentsline {subsubsection}{\numberline {8.11.3.5}set\discretionary {-}{}{}\_\discretionary {-}{}{}yx}{86}{subsubsection.8.11.3.5}
\contentsline {section}{\numberline {8.12}gui\discretionary {-}{}{}:\discretionary {-}{}{}:\discretionary {-}{}{}Menu\discretionary {-}{}{}Handler \discretionary {-}{}{}Class \discretionary {-}{}{}Reference}{86}{section.8.12}
\contentsline {subsection}{\numberline {8.12.1}\discretionary {-}{}{}Detailed \discretionary {-}{}{}Description}{87}{subsection.8.12.1}
\contentsline {subsection}{\numberline {8.12.2}\discretionary {-}{}{}Constructor \& \discretionary {-}{}{}Destructor \discretionary {-}{}{}Documentation}{87}{subsection.8.12.2}
\contentsline {subsubsection}{\numberline {8.12.2.1}\discretionary {-}{}{}Menu\discretionary {-}{}{}Handler}{87}{subsubsection.8.12.2.1}
\contentsline {subsubsection}{\numberline {8.12.2.2}\discretionary {-}{}{}Menu\discretionary {-}{}{}Handler}{87}{subsubsection.8.12.2.2}
\contentsline {subsubsection}{\numberline {8.12.2.3}$\sim $\discretionary {-}{}{}Menu\discretionary {-}{}{}Handler}{87}{subsubsection.8.12.2.3}
\contentsline {subsection}{\numberline {8.12.3}\discretionary {-}{}{}Member \discretionary {-}{}{}Function \discretionary {-}{}{}Documentation}{87}{subsection.8.12.3}
\contentsline {subsubsection}{\numberline {8.12.3.1}process}{87}{subsubsection.8.12.3.1}
\contentsline {subsubsection}{\numberline {8.12.3.2}set\discretionary {-}{}{}\_\discretionary {-}{}{}root}{88}{subsubsection.8.12.3.2}
\contentsline {section}{\numberline {8.13}gui\discretionary {-}{}{}:\discretionary {-}{}{}:\discretionary {-}{}{}Screen \discretionary {-}{}{}Class \discretionary {-}{}{}Reference}{88}{section.8.13}
\contentsline {subsection}{\numberline {8.13.1}\discretionary {-}{}{}Detailed \discretionary {-}{}{}Description}{89}{subsection.8.13.1}
\contentsline {subsection}{\numberline {8.13.2}\discretionary {-}{}{}Constructor \& \discretionary {-}{}{}Destructor \discretionary {-}{}{}Documentation}{90}{subsection.8.13.2}
\contentsline {subsubsection}{\numberline {8.13.2.1}\discretionary {-}{}{}Screen}{90}{subsubsection.8.13.2.1}
\contentsline {subsubsection}{\numberline {8.13.2.2}$\sim $\discretionary {-}{}{}Screen}{91}{subsubsection.8.13.2.2}
\contentsline {subsection}{\numberline {8.13.3}\discretionary {-}{}{}Member \discretionary {-}{}{}Function \discretionary {-}{}{}Documentation}{91}{subsection.8.13.3}
\contentsline {subsubsection}{\numberline {8.13.3.1}get\discretionary {-}{}{}\_\discretionary {-}{}{}height}{91}{subsubsection.8.13.3.1}
\contentsline {subsubsection}{\numberline {8.13.3.2}get\discretionary {-}{}{}\_\discretionary {-}{}{}panel}{91}{subsubsection.8.13.3.2}
\contentsline {subsubsection}{\numberline {8.13.3.3}get\discretionary {-}{}{}\_\discretionary {-}{}{}width}{91}{subsubsection.8.13.3.3}
\contentsline {subsubsection}{\numberline {8.13.3.4}get\discretionary {-}{}{}\_\discretionary {-}{}{}win}{91}{subsubsection.8.13.3.4}
\contentsline {subsubsection}{\numberline {8.13.3.5}get\discretionary {-}{}{}\_\discretionary {-}{}{}x}{91}{subsubsection.8.13.3.5}
\contentsline {subsubsection}{\numberline {8.13.3.6}get\discretionary {-}{}{}\_\discretionary {-}{}{}y}{92}{subsubsection.8.13.3.6}
\contentsline {subsubsection}{\numberline {8.13.3.7}hide}{92}{subsubsection.8.13.3.7}
\contentsline {subsubsection}{\numberline {8.13.3.8}is\discretionary {-}{}{}\_\discretionary {-}{}{}hidden}{92}{subsubsection.8.13.3.8}
\contentsline {subsubsection}{\numberline {8.13.3.9}redraw}{92}{subsubsection.8.13.3.9}
\contentsline {subsubsection}{\numberline {8.13.3.10}set\discretionary {-}{}{}\_\discretionary {-}{}{}x}{92}{subsubsection.8.13.3.10}
\contentsline {subsubsection}{\numberline {8.13.3.11}set\discretionary {-}{}{}\_\discretionary {-}{}{}y}{92}{subsubsection.8.13.3.11}
\contentsline {subsubsection}{\numberline {8.13.3.12}set\discretionary {-}{}{}\_\discretionary {-}{}{}yx}{92}{subsubsection.8.13.3.12}
\contentsline {subsubsection}{\numberline {8.13.3.13}show}{93}{subsubsection.8.13.3.13}
\contentsline {section}{\numberline {8.14}gui\discretionary {-}{}{}:\discretionary {-}{}{}:\discretionary {-}{}{}Scroll\discretionary {-}{}{}List \discretionary {-}{}{}Class \discretionary {-}{}{}Reference}{93}{section.8.14}
\contentsline {subsection}{\numberline {8.14.1}\discretionary {-}{}{}Detailed \discretionary {-}{}{}Description}{94}{subsection.8.14.1}
\contentsline {subsection}{\numberline {8.14.2}\discretionary {-}{}{}Constructor \& \discretionary {-}{}{}Destructor \discretionary {-}{}{}Documentation}{94}{subsection.8.14.2}
\contentsline {subsubsection}{\numberline {8.14.2.1}\discretionary {-}{}{}Scroll\discretionary {-}{}{}List}{94}{subsubsection.8.14.2.1}
\contentsline {subsubsection}{\numberline {8.14.2.2}\discretionary {-}{}{}Scroll\discretionary {-}{}{}List}{94}{subsubsection.8.14.2.2}
\contentsline {subsubsection}{\numberline {8.14.2.3}$\sim $\discretionary {-}{}{}Scroll\discretionary {-}{}{}List}{95}{subsubsection.8.14.2.3}
\contentsline {subsection}{\numberline {8.14.3}\discretionary {-}{}{}Member \discretionary {-}{}{}Function \discretionary {-}{}{}Documentation}{95}{subsection.8.14.3}
\contentsline {subsubsection}{\numberline {8.14.3.1}clear\discretionary {-}{}{}\_\discretionary {-}{}{}scr}{95}{subsubsection.8.14.3.1}
\contentsline {subsubsection}{\numberline {8.14.3.2}init}{95}{subsubsection.8.14.3.2}
\contentsline {subsubsection}{\numberline {8.14.3.3}load}{95}{subsubsection.8.14.3.3}
\contentsline {subsubsection}{\numberline {8.14.3.4}print}{95}{subsubsection.8.14.3.4}
\contentsline {subsubsection}{\numberline {8.14.3.5}quit}{95}{subsubsection.8.14.3.5}
\contentsline {subsubsection}{\numberline {8.14.3.6}redraw}{96}{subsubsection.8.14.3.6}
\contentsline {subsubsection}{\numberline {8.14.3.7}run\discretionary {-}{}{}\_\discretionary {-}{}{}listener}{96}{subsubsection.8.14.3.7}
\contentsline {subsubsection}{\numberline {8.14.3.8}set\discretionary {-}{}{}\_\discretionary {-}{}{}proportions}{96}{subsubsection.8.14.3.8}
\contentsline {subsubsection}{\numberline {8.14.3.9}set\discretionary {-}{}{}\_\discretionary {-}{}{}root}{96}{subsubsection.8.14.3.9}
\contentsline {section}{\numberline {8.15}gui\discretionary {-}{}{}:\discretionary {-}{}{}:\discretionary {-}{}{}Status \discretionary {-}{}{}Class \discretionary {-}{}{}Reference}{97}{section.8.15}
\contentsline {subsection}{\numberline {8.15.1}\discretionary {-}{}{}Detailed \discretionary {-}{}{}Description}{97}{subsection.8.15.1}
\contentsline {subsection}{\numberline {8.15.2}\discretionary {-}{}{}Constructor \& \discretionary {-}{}{}Destructor \discretionary {-}{}{}Documentation}{98}{subsection.8.15.2}
\contentsline {subsubsection}{\numberline {8.15.2.1}\discretionary {-}{}{}Status}{98}{subsubsection.8.15.2.1}
\contentsline {subsubsection}{\numberline {8.15.2.2}\discretionary {-}{}{}Status}{98}{subsubsection.8.15.2.2}
\contentsline {subsubsection}{\numberline {8.15.2.3}$\sim $\discretionary {-}{}{}Status}{98}{subsubsection.8.15.2.3}
\contentsline {subsection}{\numberline {8.15.3}\discretionary {-}{}{}Member \discretionary {-}{}{}Function \discretionary {-}{}{}Documentation}{98}{subsection.8.15.3}
\contentsline {subsubsection}{\numberline {8.15.3.1}clear\discretionary {-}{}{}\_\discretionary {-}{}{}scr}{98}{subsubsection.8.15.3.1}
\contentsline {subsubsection}{\numberline {8.15.3.2}get\discretionary {-}{}{}\_\discretionary {-}{}{}scr}{98}{subsubsection.8.15.3.2}
\contentsline {subsubsection}{\numberline {8.15.3.3}init}{99}{subsubsection.8.15.3.3}
\contentsline {subsubsection}{\numberline {8.15.3.4}print}{99}{subsubsection.8.15.3.4}
\contentsline {subsubsection}{\numberline {8.15.3.5}quit}{99}{subsubsection.8.15.3.5}
\contentsline {subsubsection}{\numberline {8.15.3.6}redraw}{99}{subsubsection.8.15.3.6}
\contentsline {subsubsection}{\numberline {8.15.3.7}set\discretionary {-}{}{}\_\discretionary {-}{}{}root}{100}{subsubsection.8.15.3.7}
\contentsline {section}{\numberline {8.16}logic\discretionary {-}{}{}:\discretionary {-}{}{}:adt\discretionary {-}{}{}:\discretionary {-}{}{}:\discretionary {-}{}{}Basic\discretionary {-}{}{}Database \discretionary {-}{}{}Class \discretionary {-}{}{}Reference}{100}{section.8.16}
\contentsline {subsection}{\numberline {8.16.1}\discretionary {-}{}{}Detailed \discretionary {-}{}{}Description}{102}{subsection.8.16.1}
\contentsline {subsection}{\numberline {8.16.2}\discretionary {-}{}{}Constructor \& \discretionary {-}{}{}Destructor \discretionary {-}{}{}Documentation}{102}{subsection.8.16.2}
\contentsline {subsubsection}{\numberline {8.16.2.1}\discretionary {-}{}{}Basic\discretionary {-}{}{}Database}{102}{subsubsection.8.16.2.1}
\contentsline {subsubsection}{\numberline {8.16.2.2}$\sim $\discretionary {-}{}{}Basic\discretionary {-}{}{}Database}{102}{subsubsection.8.16.2.2}
\contentsline {subsection}{\numberline {8.16.3}\discretionary {-}{}{}Member \discretionary {-}{}{}Function \discretionary {-}{}{}Documentation}{102}{subsection.8.16.3}
\contentsline {subsubsection}{\numberline {8.16.3.1}compare}{102}{subsubsection.8.16.3.1}
\contentsline {subsubsection}{\numberline {8.16.3.2}delete\discretionary {-}{}{}\_\discretionary {-}{}{}at}{103}{subsubsection.8.16.3.2}
\contentsline {subsubsection}{\numberline {8.16.3.3}get}{104}{subsubsection.8.16.3.3}
\contentsline {subsubsection}{\numberline {8.16.3.4}insert}{104}{subsubsection.8.16.3.4}
\contentsline {subsubsection}{\numberline {8.16.3.5}push}{104}{subsubsection.8.16.3.5}
\contentsline {subsubsection}{\numberline {8.16.3.6}restock\discretionary {-}{}{}\_\discretionary {-}{}{}for}{105}{subsubsection.8.16.3.6}
\contentsline {subsubsection}{\numberline {8.16.3.7}search\discretionary {-}{}{}\_\discretionary {-}{}{}by}{105}{subsubsection.8.16.3.7}
\contentsline {subsubsection}{\numberline {8.16.3.8}search\discretionary {-}{}{}\_\discretionary {-}{}{}by\discretionary {-}{}{}\_\discretionary {-}{}{}prod}{105}{subsubsection.8.16.3.8}
\contentsline {subsubsection}{\numberline {8.16.3.9}size}{106}{subsubsection.8.16.3.9}
\contentsline {subsubsection}{\numberline {8.16.3.10}sort\discretionary {-}{}{}\_\discretionary {-}{}{}by}{106}{subsubsection.8.16.3.10}
\contentsline {subsubsection}{\numberline {8.16.3.11}specify\discretionary {-}{}{}Sale\discretionary {-}{}{}\_\discretionary {-}{}{}for}{106}{subsubsection.8.16.3.11}
\contentsline {subsection}{\numberline {8.16.4}\discretionary {-}{}{}Member \discretionary {-}{}{}Data \discretionary {-}{}{}Documentation}{107}{subsection.8.16.4}
\contentsline {subsubsection}{\numberline {8.16.4.1}\discretionary {-}{}{}\_\discretionary {-}{}{}sort\discretionary {-}{}{}\_\discretionary {-}{}{}order}{107}{subsubsection.8.16.4.1}
\contentsline {subsubsection}{\numberline {8.16.4.2}\discretionary {-}{}{}\_\discretionary {-}{}{}sort\discretionary {-}{}{}\_\discretionary {-}{}{}type}{107}{subsubsection.8.16.4.2}
\contentsline {section}{\numberline {8.17}logic\discretionary {-}{}{}:\discretionary {-}{}{}:adt\discretionary {-}{}{}:\discretionary {-}{}{}:\discretionary {-}{}{}Basic\discretionary {-}{}{}Database\discretionary {-}{}{}List \discretionary {-}{}{}Class \discretionary {-}{}{}Reference}{107}{section.8.17}
\contentsline {subsection}{\numberline {8.17.1}\discretionary {-}{}{}Detailed \discretionary {-}{}{}Description}{109}{subsection.8.17.1}
\contentsline {subsection}{\numberline {8.17.2}\discretionary {-}{}{}Constructor \& \discretionary {-}{}{}Destructor \discretionary {-}{}{}Documentation}{110}{subsection.8.17.2}
\contentsline {subsubsection}{\numberline {8.17.2.1}\discretionary {-}{}{}Basic\discretionary {-}{}{}Database\discretionary {-}{}{}List}{110}{subsubsection.8.17.2.1}
\contentsline {subsubsection}{\numberline {8.17.2.2}$\sim $\discretionary {-}{}{}Basic\discretionary {-}{}{}Database\discretionary {-}{}{}List}{110}{subsubsection.8.17.2.2}
\contentsline {subsection}{\numberline {8.17.3}\discretionary {-}{}{}Member \discretionary {-}{}{}Function \discretionary {-}{}{}Documentation}{110}{subsection.8.17.3}
\contentsline {subsubsection}{\numberline {8.17.3.1}delete\discretionary {-}{}{}\_\discretionary {-}{}{}at}{110}{subsubsection.8.17.3.1}
\contentsline {subsubsection}{\numberline {8.17.3.2}get}{111}{subsubsection.8.17.3.2}
\contentsline {subsubsection}{\numberline {8.17.3.3}insert}{112}{subsubsection.8.17.3.3}
\contentsline {subsubsection}{\numberline {8.17.3.4}is\discretionary {-}{}{}Empty}{112}{subsubsection.8.17.3.4}
\contentsline {subsubsection}{\numberline {8.17.3.5}push}{113}{subsubsection.8.17.3.5}
\contentsline {subsubsection}{\numberline {8.17.3.6}search}{113}{subsubsection.8.17.3.6}
\contentsline {subsubsection}{\numberline {8.17.3.7}search\discretionary {-}{}{}\_\discretionary {-}{}{}by\discretionary {-}{}{}\_\discretionary {-}{}{}prod}{114}{subsubsection.8.17.3.7}
\contentsline {subsubsection}{\numberline {8.17.3.8}size}{115}{subsubsection.8.17.3.8}
\contentsline {subsubsection}{\numberline {8.17.3.9}sort\discretionary {-}{}{}\_\discretionary {-}{}{}by}{116}{subsubsection.8.17.3.9}
\contentsline {subsubsection}{\numberline {8.17.3.10}swap}{117}{subsubsection.8.17.3.10}
\contentsline {subsection}{\numberline {8.17.4}\discretionary {-}{}{}Member \discretionary {-}{}{}Data \discretionary {-}{}{}Documentation}{117}{subsection.8.17.4}
\contentsline {subsubsection}{\numberline {8.17.4.1}\discretionary {-}{}{}\_\discretionary {-}{}{}size}{118}{subsubsection.8.17.4.1}
\contentsline {subsubsection}{\numberline {8.17.4.2}\discretionary {-}{}{}\_\discretionary {-}{}{}tail}{118}{subsubsection.8.17.4.2}
\contentsline {section}{\numberline {8.18}logic\discretionary {-}{}{}:\discretionary {-}{}{}:adt\discretionary {-}{}{}:\discretionary {-}{}{}:\discretionary {-}{}{}Basic\discretionary {-}{}{}Database\discretionary {-}{}{}List\discretionary {-}{}{}:\discretionary {-}{}{}:\discretionary {-}{}{}Product\discretionary {-}{}{}List \discretionary {-}{}{}Struct \discretionary {-}{}{}Reference}{118}{section.8.18}
\contentsline {subsection}{\numberline {8.18.1}\discretionary {-}{}{}Member \discretionary {-}{}{}Data \discretionary {-}{}{}Documentation}{118}{subsection.8.18.1}
\contentsline {subsubsection}{\numberline {8.18.1.1}next}{119}{subsubsection.8.18.1.1}
\contentsline {subsubsection}{\numberline {8.18.1.2}\discretionary {-}{}{}Prod}{119}{subsubsection.8.18.1.2}
\contentsline {section}{\numberline {8.19}logic\discretionary {-}{}{}:\discretionary {-}{}{}:adt\discretionary {-}{}{}:\discretionary {-}{}{}:\discretionary {-}{}{}Basic\discretionary {-}{}{}Database\discretionary {-}{}{}Vector \discretionary {-}{}{}Class \discretionary {-}{}{}Reference}{119}{section.8.19}
\contentsline {subsection}{\numberline {8.19.1}\discretionary {-}{}{}Detailed \discretionary {-}{}{}Description}{121}{subsection.8.19.1}
\contentsline {subsection}{\numberline {8.19.2}\discretionary {-}{}{}Constructor \& \discretionary {-}{}{}Destructor \discretionary {-}{}{}Documentation}{121}{subsection.8.19.2}
\contentsline {subsubsection}{\numberline {8.19.2.1}\discretionary {-}{}{}Basic\discretionary {-}{}{}Database\discretionary {-}{}{}Vector}{121}{subsubsection.8.19.2.1}
\contentsline {subsubsection}{\numberline {8.19.2.2}$\sim $\discretionary {-}{}{}Basic\discretionary {-}{}{}Database\discretionary {-}{}{}Vector}{121}{subsubsection.8.19.2.2}
\contentsline {subsection}{\numberline {8.19.3}\discretionary {-}{}{}Member \discretionary {-}{}{}Function \discretionary {-}{}{}Documentation}{121}{subsection.8.19.3}
\contentsline {subsubsection}{\numberline {8.19.3.1}clear}{121}{subsubsection.8.19.3.1}
\contentsline {subsubsection}{\numberline {8.19.3.2}delete\discretionary {-}{}{}\_\discretionary {-}{}{}at}{122}{subsubsection.8.19.3.2}
\contentsline {subsubsection}{\numberline {8.19.3.3}get}{122}{subsubsection.8.19.3.3}
\contentsline {subsubsection}{\numberline {8.19.3.4}insert}{123}{subsubsection.8.19.3.4}
\contentsline {subsubsection}{\numberline {8.19.3.5}push}{123}{subsubsection.8.19.3.5}
\contentsline {subsubsection}{\numberline {8.19.3.6}search}{124}{subsubsection.8.19.3.6}
\contentsline {subsubsection}{\numberline {8.19.3.7}search\discretionary {-}{}{}\_\discretionary {-}{}{}by\discretionary {-}{}{}\_\discretionary {-}{}{}prod}{125}{subsubsection.8.19.3.7}
\contentsline {subsubsection}{\numberline {8.19.3.8}size}{126}{subsubsection.8.19.3.8}
\contentsline {subsubsection}{\numberline {8.19.3.9}sort\discretionary {-}{}{}\_\discretionary {-}{}{}by}{127}{subsubsection.8.19.3.9}
\contentsline {subsubsection}{\numberline {8.19.3.10}swap}{127}{subsubsection.8.19.3.10}
\contentsline {section}{\numberline {8.20}logic\discretionary {-}{}{}:\discretionary {-}{}{}:\discretionary {-}{}{}Batch\discretionary {-}{}{}Job \discretionary {-}{}{}Class \discretionary {-}{}{}Reference}{128}{section.8.20}
\contentsline {subsection}{\numberline {8.20.1}\discretionary {-}{}{}Detailed \discretionary {-}{}{}Description}{128}{subsection.8.20.1}
\contentsline {subsection}{\numberline {8.20.2}\discretionary {-}{}{}Constructor \& \discretionary {-}{}{}Destructor \discretionary {-}{}{}Documentation}{129}{subsection.8.20.2}
\contentsline {subsubsection}{\numberline {8.20.2.1}\discretionary {-}{}{}Batch\discretionary {-}{}{}Job}{129}{subsubsection.8.20.2.1}
\contentsline {subsubsection}{\numberline {8.20.2.2}$\sim $\discretionary {-}{}{}Batch\discretionary {-}{}{}Job}{129}{subsubsection.8.20.2.2}
\contentsline {subsubsection}{\numberline {8.20.2.3}\discretionary {-}{}{}Batch\discretionary {-}{}{}Job}{129}{subsubsection.8.20.2.3}
\contentsline {subsection}{\numberline {8.20.3}\discretionary {-}{}{}Member \discretionary {-}{}{}Function \discretionary {-}{}{}Documentation}{129}{subsection.8.20.3}
\contentsline {subsubsection}{\numberline {8.20.3.1}start}{129}{subsubsection.8.20.3.1}
\contentsline {section}{\numberline {8.21}logic\discretionary {-}{}{}:\discretionary {-}{}{}:\discretionary {-}{}{}File \discretionary {-}{}{}Class \discretionary {-}{}{}Reference}{130}{section.8.21}
\contentsline {subsection}{\numberline {8.21.1}\discretionary {-}{}{}Detailed \discretionary {-}{}{}Description}{130}{subsection.8.21.1}
\contentsline {subsection}{\numberline {8.21.2}\discretionary {-}{}{}Constructor \& \discretionary {-}{}{}Destructor \discretionary {-}{}{}Documentation}{130}{subsection.8.21.2}
\contentsline {subsubsection}{\numberline {8.21.2.1}\discretionary {-}{}{}File}{130}{subsubsection.8.21.2.1}
\contentsline {subsubsection}{\numberline {8.21.2.2}$\sim $\discretionary {-}{}{}File}{130}{subsubsection.8.21.2.2}
\contentsline {subsection}{\numberline {8.21.3}\discretionary {-}{}{}Member \discretionary {-}{}{}Function \discretionary {-}{}{}Documentation}{130}{subsection.8.21.3}
\contentsline {subsubsection}{\numberline {8.21.3.1}load}{130}{subsubsection.8.21.3.1}
\contentsline {subsubsection}{\numberline {8.21.3.2}prod\discretionary {-}{}{}To\discretionary {-}{}{}String}{131}{subsubsection.8.21.3.2}
\contentsline {subsubsection}{\numberline {8.21.3.3}save}{132}{subsubsection.8.21.3.3}
\contentsline {subsubsection}{\numberline {8.21.3.4}string\discretionary {-}{}{}To\discretionary {-}{}{}Prod}{133}{subsubsection.8.21.3.4}
\contentsline {section}{\numberline {8.22}logic\discretionary {-}{}{}:\discretionary {-}{}{}:\discretionary {-}{}{}Logic \discretionary {-}{}{}Class \discretionary {-}{}{}Reference}{134}{section.8.22}
\contentsline {subsection}{\numberline {8.22.1}\discretionary {-}{}{}Detailed \discretionary {-}{}{}Description}{135}{subsection.8.22.1}
\contentsline {subsection}{\numberline {8.22.2}\discretionary {-}{}{}Constructor \& \discretionary {-}{}{}Destructor \discretionary {-}{}{}Documentation}{136}{subsection.8.22.2}
\contentsline {subsubsection}{\numberline {8.22.2.1}\discretionary {-}{}{}Logic}{136}{subsubsection.8.22.2.1}
\contentsline {subsubsection}{\numberline {8.22.2.2}$\sim $\discretionary {-}{}{}Logic}{136}{subsubsection.8.22.2.2}
\contentsline {subsection}{\numberline {8.22.3}\discretionary {-}{}{}Member \discretionary {-}{}{}Function \discretionary {-}{}{}Documentation}{136}{subsection.8.22.3}
\contentsline {subsubsection}{\numberline {8.22.3.1}add\discretionary {-}{}{}Product}{136}{subsubsection.8.22.3.1}
\contentsline {subsubsection}{\numberline {8.22.3.2}call\discretionary {-}{}{}\_\discretionary {-}{}{}wait}{136}{subsubsection.8.22.3.2}
\contentsline {subsubsection}{\numberline {8.22.3.3}check\discretionary {-}{}{}Barcode\discretionary {-}{}{}Unique}{137}{subsubsection.8.22.3.3}
\contentsline {subsubsection}{\numberline {8.22.3.4}del\discretionary {-}{}{}Product}{137}{subsubsection.8.22.3.4}
\contentsline {subsubsection}{\numberline {8.22.3.5}gen\discretionary {-}{}{}Stats}{137}{subsubsection.8.22.3.5}
\contentsline {subsubsection}{\numberline {8.22.3.6}get\discretionary {-}{}{}\_\discretionary {-}{}{}db\discretionary {-}{}{}Mode}{137}{subsubsection.8.22.3.6}
\contentsline {subsubsection}{\numberline {8.22.3.7}is\discretionary {-}{}{}\_\discretionary {-}{}{}unique}{137}{subsubsection.8.22.3.7}
\contentsline {subsubsection}{\numberline {8.22.3.8}load}{138}{subsubsection.8.22.3.8}
\contentsline {subsubsection}{\numberline {8.22.3.9}quit}{139}{subsubsection.8.22.3.9}
\contentsline {subsubsection}{\numberline {8.22.3.10}restock}{139}{subsubsection.8.22.3.10}
\contentsline {subsubsection}{\numberline {8.22.3.11}run\discretionary {-}{}{}\_\discretionary {-}{}{}batch}{140}{subsubsection.8.22.3.11}
\contentsline {subsubsection}{\numberline {8.22.3.12}save}{140}{subsubsection.8.22.3.12}
\contentsline {subsubsection}{\numberline {8.22.3.13}search\discretionary {-}{}{}Product}{141}{subsubsection.8.22.3.13}
\contentsline {subsubsection}{\numberline {8.22.3.14}set\discretionary {-}{}{}\_\discretionary {-}{}{}db\discretionary {-}{}{}Mode}{141}{subsubsection.8.22.3.14}
\contentsline {subsubsection}{\numberline {8.22.3.15}sort\discretionary {-}{}{}Best\discretionary {-}{}{}Manufacturer}{141}{subsubsection.8.22.3.15}
\contentsline {subsubsection}{\numberline {8.22.3.16}sort\discretionary {-}{}{}Best\discretionary {-}{}{}Product}{142}{subsubsection.8.22.3.16}
\contentsline {subsubsection}{\numberline {8.22.3.17}sort\discretionary {-}{}{}Best\discretionary {-}{}{}Product\discretionary {-}{}{}Category}{142}{subsubsection.8.22.3.17}
\contentsline {subsubsection}{\numberline {8.22.3.18}sort\discretionary {-}{}{}Best\discretionary {-}{}{}Selling\discretionary {-}{}{}Product}{142}{subsubsection.8.22.3.18}
\contentsline {subsubsection}{\numberline {8.22.3.19}specify\discretionary {-}{}{}Sale}{142}{subsubsection.8.22.3.19}
\contentsline {subsubsection}{\numberline {8.22.3.20}toggle\discretionary {-}{}{}\_\discretionary {-}{}{}db\discretionary {-}{}{}Mode}{143}{subsubsection.8.22.3.20}
\contentsline {subsubsection}{\numberline {8.22.3.21}update\discretionary {-}{}{}\_\discretionary {-}{}{}gui\discretionary {-}{}{}\_\discretionary {-}{}{}status}{143}{subsubsection.8.22.3.21}
\contentsline {section}{\numberline {8.23}logic\discretionary {-}{}{}:\discretionary {-}{}{}:\discretionary {-}{}{}Product \discretionary {-}{}{}Class \discretionary {-}{}{}Reference}{144}{section.8.23}
\contentsline {subsection}{\numberline {8.23.1}\discretionary {-}{}{}Detailed \discretionary {-}{}{}Description}{145}{subsection.8.23.1}
\contentsline {subsection}{\numberline {8.23.2}\discretionary {-}{}{}Constructor \& \discretionary {-}{}{}Destructor \discretionary {-}{}{}Documentation}{145}{subsection.8.23.2}
\contentsline {subsubsection}{\numberline {8.23.2.1}\discretionary {-}{}{}Product}{145}{subsubsection.8.23.2.1}
\contentsline {subsubsection}{\numberline {8.23.2.2}\discretionary {-}{}{}Product}{145}{subsubsection.8.23.2.2}
\contentsline {subsubsection}{\numberline {8.23.2.3}$\sim $\discretionary {-}{}{}Product}{145}{subsubsection.8.23.2.3}
\contentsline {subsection}{\numberline {8.23.3}\discretionary {-}{}{}Member \discretionary {-}{}{}Function \discretionary {-}{}{}Documentation}{145}{subsection.8.23.3}
\contentsline {subsubsection}{\numberline {8.23.3.1}copy}{146}{subsubsection.8.23.3.1}
\contentsline {subsubsection}{\numberline {8.23.3.2}get\discretionary {-}{}{}Barcode}{146}{subsubsection.8.23.3.2}
\contentsline {subsubsection}{\numberline {8.23.3.3}get\discretionary {-}{}{}Cat}{147}{subsubsection.8.23.3.3}
\contentsline {subsubsection}{\numberline {8.23.3.4}get\discretionary {-}{}{}Manufacturer}{147}{subsubsection.8.23.3.4}
\contentsline {subsubsection}{\numberline {8.23.3.5}get\discretionary {-}{}{}Name}{147}{subsubsection.8.23.3.5}
\contentsline {subsubsection}{\numberline {8.23.3.6}get\discretionary {-}{}{}No\discretionary {-}{}{}Of\discretionary {-}{}{}Stock}{148}{subsubsection.8.23.3.6}
\contentsline {subsubsection}{\numberline {8.23.3.7}get\discretionary {-}{}{}No\discretionary {-}{}{}Sold}{148}{subsubsection.8.23.3.7}
\contentsline {subsubsection}{\numberline {8.23.3.8}get\discretionary {-}{}{}Price}{148}{subsubsection.8.23.3.8}
\contentsline {subsubsection}{\numberline {8.23.3.9}set\discretionary {-}{}{}Barcode}{148}{subsubsection.8.23.3.9}
\contentsline {subsubsection}{\numberline {8.23.3.10}set\discretionary {-}{}{}Cat}{149}{subsubsection.8.23.3.10}
\contentsline {subsubsection}{\numberline {8.23.3.11}set\discretionary {-}{}{}Manufacturer}{149}{subsubsection.8.23.3.11}
\contentsline {subsubsection}{\numberline {8.23.3.12}set\discretionary {-}{}{}Name}{149}{subsubsection.8.23.3.12}
\contentsline {subsubsection}{\numberline {8.23.3.13}set\discretionary {-}{}{}No\discretionary {-}{}{}Of\discretionary {-}{}{}Stock}{149}{subsubsection.8.23.3.13}
\contentsline {subsubsection}{\numberline {8.23.3.14}set\discretionary {-}{}{}No\discretionary {-}{}{}Sold}{150}{subsubsection.8.23.3.14}
\contentsline {subsubsection}{\numberline {8.23.3.15}set\discretionary {-}{}{}Price}{150}{subsubsection.8.23.3.15}
\contentsline {chapter}{\numberline {9}\discretionary {-}{}{}File \discretionary {-}{}{}Documentation}{151}{chapter.9}
\contentsline {section}{\numberline {9.1}\discretionary {-}{}{}Adt\discretionary {-}{}{}Flags.\discretionary {-}{}{}h \discretionary {-}{}{}File \discretionary {-}{}{}Reference}{151}{section.9.1}
\contentsline {subsection}{\numberline {9.1.1}\discretionary {-}{}{}Detailed \discretionary {-}{}{}Description}{152}{subsection.9.1.1}
\contentsline {section}{\numberline {9.2}\discretionary {-}{}{}Basic\discretionary {-}{}{}Database.\discretionary {-}{}{}cpp \discretionary {-}{}{}File \discretionary {-}{}{}Reference}{153}{section.9.2}
\contentsline {section}{\numberline {9.3}\discretionary {-}{}{}Basic\discretionary {-}{}{}Database.\discretionary {-}{}{}h \discretionary {-}{}{}File \discretionary {-}{}{}Reference}{153}{section.9.3}
\contentsline {subsection}{\numberline {9.3.1}\discretionary {-}{}{}Detailed \discretionary {-}{}{}Description}{155}{subsection.9.3.1}
\contentsline {section}{\numberline {9.4}\discretionary {-}{}{}Basic\discretionary {-}{}{}Database\discretionary {-}{}{}List.\discretionary {-}{}{}cpp \discretionary {-}{}{}File \discretionary {-}{}{}Reference}{156}{section.9.4}
\contentsline {subsection}{\numberline {9.4.1}\discretionary {-}{}{}Detailed \discretionary {-}{}{}Description}{156}{subsection.9.4.1}
\contentsline {section}{\numberline {9.5}\discretionary {-}{}{}Basic\discretionary {-}{}{}Database\discretionary {-}{}{}List.\discretionary {-}{}{}h \discretionary {-}{}{}File \discretionary {-}{}{}Reference}{157}{section.9.5}
\contentsline {subsection}{\numberline {9.5.1}\discretionary {-}{}{}Detailed \discretionary {-}{}{}Description}{158}{subsection.9.5.1}
\contentsline {section}{\numberline {9.6}\discretionary {-}{}{}Basic\discretionary {-}{}{}Database\discretionary {-}{}{}Vector.\discretionary {-}{}{}cpp \discretionary {-}{}{}File \discretionary {-}{}{}Reference}{158}{section.9.6}
\contentsline {subsection}{\numberline {9.6.1}\discretionary {-}{}{}Detailed \discretionary {-}{}{}Description}{159}{subsection.9.6.1}
\contentsline {section}{\numberline {9.7}\discretionary {-}{}{}Basic\discretionary {-}{}{}Database\discretionary {-}{}{}Vector.\discretionary {-}{}{}h \discretionary {-}{}{}File \discretionary {-}{}{}Reference}{159}{section.9.7}
\contentsline {subsection}{\numberline {9.7.1}\discretionary {-}{}{}Detailed \discretionary {-}{}{}Description}{161}{subsection.9.7.1}
\contentsline {section}{\numberline {9.8}\discretionary {-}{}{}Batch\discretionary {-}{}{}Job.\discretionary {-}{}{}cpp \discretionary {-}{}{}File \discretionary {-}{}{}Reference}{161}{section.9.8}
\contentsline {subsection}{\numberline {9.8.1}\discretionary {-}{}{}Detailed \discretionary {-}{}{}Description}{162}{subsection.9.8.1}
\contentsline {section}{\numberline {9.9}\discretionary {-}{}{}Batch\discretionary {-}{}{}Job.\discretionary {-}{}{}h \discretionary {-}{}{}File \discretionary {-}{}{}Reference}{163}{section.9.9}
\contentsline {subsection}{\numberline {9.9.1}\discretionary {-}{}{}Detailed \discretionary {-}{}{}Description}{164}{subsection.9.9.1}
\contentsline {section}{\numberline {9.10}\discretionary {-}{}{}Button.\discretionary {-}{}{}cpp \discretionary {-}{}{}File \discretionary {-}{}{}Reference}{164}{section.9.10}
\contentsline {subsection}{\numberline {9.10.1}\discretionary {-}{}{}Detailed \discretionary {-}{}{}Description}{165}{subsection.9.10.1}
\contentsline {section}{\numberline {9.11}\discretionary {-}{}{}Button.\discretionary {-}{}{}h \discretionary {-}{}{}File \discretionary {-}{}{}Reference}{165}{section.9.11}
\contentsline {subsection}{\numberline {9.11.1}\discretionary {-}{}{}Detailed \discretionary {-}{}{}Description}{166}{subsection.9.11.1}
\contentsline {section}{\numberline {9.12}\discretionary {-}{}{}Color\discretionary {-}{}{}Pairs.\discretionary {-}{}{}h \discretionary {-}{}{}File \discretionary {-}{}{}Reference}{167}{section.9.12}
\contentsline {subsection}{\numberline {9.12.1}\discretionary {-}{}{}Detailed \discretionary {-}{}{}Description}{168}{subsection.9.12.1}
\contentsline {section}{\numberline {9.13}\discretionary {-}{}{}Error\discretionary {-}{}{}Checker.\discretionary {-}{}{}h \discretionary {-}{}{}File \discretionary {-}{}{}Reference}{168}{section.9.13}
\contentsline {subsection}{\numberline {9.13.1}\discretionary {-}{}{}Detailed \discretionary {-}{}{}Description}{170}{subsection.9.13.1}
\contentsline {section}{\numberline {9.14}\discretionary {-}{}{}File.\discretionary {-}{}{}cpp \discretionary {-}{}{}File \discretionary {-}{}{}Reference}{170}{section.9.14}
\contentsline {subsection}{\numberline {9.14.1}\discretionary {-}{}{}Detailed \discretionary {-}{}{}Description}{170}{subsection.9.14.1}
\contentsline {section}{\numberline {9.15}\discretionary {-}{}{}File.\discretionary {-}{}{}h \discretionary {-}{}{}File \discretionary {-}{}{}Reference}{171}{section.9.15}
\contentsline {subsection}{\numberline {9.15.1}\discretionary {-}{}{}Detailed \discretionary {-}{}{}Description}{172}{subsection.9.15.1}
\contentsline {section}{\numberline {9.16}\discretionary {-}{}{}Form.\discretionary {-}{}{}cpp \discretionary {-}{}{}File \discretionary {-}{}{}Reference}{172}{section.9.16}
\contentsline {subsection}{\numberline {9.16.1}\discretionary {-}{}{}Detailed \discretionary {-}{}{}Description}{173}{subsection.9.16.1}
\contentsline {section}{\numberline {9.17}\discretionary {-}{}{}Form.\discretionary {-}{}{}h \discretionary {-}{}{}File \discretionary {-}{}{}Reference}{173}{section.9.17}
\contentsline {subsection}{\numberline {9.17.1}\discretionary {-}{}{}Detailed \discretionary {-}{}{}Description}{174}{subsection.9.17.1}
\contentsline {section}{\numberline {9.18}\discretionary {-}{}{}Form\discretionary {-}{}{}\_\discretionary {-}{}{}constants.\discretionary {-}{}{}h \discretionary {-}{}{}File \discretionary {-}{}{}Reference}{175}{section.9.18}
\contentsline {subsection}{\numberline {9.18.1}\discretionary {-}{}{}Detailed \discretionary {-}{}{}Description}{176}{subsection.9.18.1}
\contentsline {section}{\numberline {9.19}\discretionary {-}{}{}Form\discretionary {-}{}{}Factory.\discretionary {-}{}{}cpp \discretionary {-}{}{}File \discretionary {-}{}{}Reference}{176}{section.9.19}
\contentsline {subsection}{\numberline {9.19.1}\discretionary {-}{}{}Detailed \discretionary {-}{}{}Description}{177}{subsection.9.19.1}
\contentsline {subsection}{\numberline {9.19.2}\discretionary {-}{}{}Function \discretionary {-}{}{}Documentation}{177}{subsection.9.19.2}
\contentsline {subsubsection}{\numberline {9.19.2.1}check\discretionary {-}{}{}\_\discretionary {-}{}{}existing\discretionary {-}{}{}\_\discretionary {-}{}{}barcode}{177}{subsubsection.9.19.2.1}
\contentsline {subsubsection}{\numberline {9.19.2.2}for\discretionary {-}{}{}Fun}{178}{subsubsection.9.19.2.2}
\contentsline {section}{\numberline {9.20}\discretionary {-}{}{}Form\discretionary {-}{}{}Factory.\discretionary {-}{}{}h \discretionary {-}{}{}File \discretionary {-}{}{}Reference}{178}{section.9.20}
\contentsline {subsection}{\numberline {9.20.1}\discretionary {-}{}{}Detailed \discretionary {-}{}{}Description}{179}{subsection.9.20.1}
\contentsline {section}{\numberline {9.21}\discretionary {-}{}{}Form\discretionary {-}{}{}U\discretionary {-}{}{}I.\discretionary {-}{}{}cpp \discretionary {-}{}{}File \discretionary {-}{}{}Reference}{180}{section.9.21}
\contentsline {subsection}{\numberline {9.21.1}\discretionary {-}{}{}Detailed \discretionary {-}{}{}Description}{180}{subsection.9.21.1}
\contentsline {section}{\numberline {9.22}\discretionary {-}{}{}Form\discretionary {-}{}{}U\discretionary {-}{}{}I.\discretionary {-}{}{}h \discretionary {-}{}{}File \discretionary {-}{}{}Reference}{180}{section.9.22}
\contentsline {subsection}{\numberline {9.22.1}\discretionary {-}{}{}Detailed \discretionary {-}{}{}Description}{182}{subsection.9.22.1}
\contentsline {section}{\numberline {9.23}\discretionary {-}{}{}Form\discretionary {-}{}{}Utils.\discretionary {-}{}{}h \discretionary {-}{}{}File \discretionary {-}{}{}Reference}{182}{section.9.23}
\contentsline {subsection}{\numberline {9.23.1}\discretionary {-}{}{}Detailed \discretionary {-}{}{}Description}{183}{subsection.9.23.1}
\contentsline {section}{\numberline {9.24}\discretionary {-}{}{}Gui.\discretionary {-}{}{}cpp \discretionary {-}{}{}File \discretionary {-}{}{}Reference}{183}{section.9.24}
\contentsline {subsection}{\numberline {9.24.1}\discretionary {-}{}{}Detailed \discretionary {-}{}{}Description}{184}{subsection.9.24.1}
\contentsline {section}{\numberline {9.25}\discretionary {-}{}{}Gui.\discretionary {-}{}{}h \discretionary {-}{}{}File \discretionary {-}{}{}Reference}{184}{section.9.25}
\contentsline {subsection}{\numberline {9.25.1}\discretionary {-}{}{}Detailed \discretionary {-}{}{}Description}{185}{subsection.9.25.1}
\contentsline {section}{\numberline {9.26}\discretionary {-}{}{}Header.\discretionary {-}{}{}cpp \discretionary {-}{}{}File \discretionary {-}{}{}Reference}{185}{section.9.26}
\contentsline {subsection}{\numberline {9.26.1}\discretionary {-}{}{}Detailed \discretionary {-}{}{}Description}{186}{subsection.9.26.1}
\contentsline {section}{\numberline {9.27}\discretionary {-}{}{}Header.\discretionary {-}{}{}h \discretionary {-}{}{}File \discretionary {-}{}{}Reference}{186}{section.9.27}
\contentsline {subsection}{\numberline {9.27.1}\discretionary {-}{}{}Detailed \discretionary {-}{}{}Description}{187}{subsection.9.27.1}
\contentsline {section}{\numberline {9.28}\discretionary {-}{}{}Interface.\discretionary {-}{}{}cpp \discretionary {-}{}{}File \discretionary {-}{}{}Reference}{187}{section.9.28}
\contentsline {subsection}{\numberline {9.28.1}\discretionary {-}{}{}Detailed \discretionary {-}{}{}Description}{188}{subsection.9.28.1}
\contentsline {section}{\numberline {9.29}\discretionary {-}{}{}Interface.\discretionary {-}{}{}h \discretionary {-}{}{}File \discretionary {-}{}{}Reference}{188}{section.9.29}
\contentsline {subsection}{\numberline {9.29.1}\discretionary {-}{}{}Detailed \discretionary {-}{}{}Description}{189}{subsection.9.29.1}
\contentsline {section}{\numberline {9.30}\discretionary {-}{}{}Logic.\discretionary {-}{}{}cpp \discretionary {-}{}{}File \discretionary {-}{}{}Reference}{189}{section.9.30}
\contentsline {subsection}{\numberline {9.30.1}\discretionary {-}{}{}Detailed \discretionary {-}{}{}Description}{190}{subsection.9.30.1}
\contentsline {section}{\numberline {9.31}\discretionary {-}{}{}Logic.\discretionary {-}{}{}h \discretionary {-}{}{}File \discretionary {-}{}{}Reference}{190}{section.9.31}
\contentsline {subsection}{\numberline {9.31.1}\discretionary {-}{}{}Detailed \discretionary {-}{}{}Description}{191}{subsection.9.31.1}
\contentsline {section}{\numberline {9.32}main.\discretionary {-}{}{}cpp \discretionary {-}{}{}File \discretionary {-}{}{}Reference}{192}{section.9.32}
\contentsline {subsection}{\numberline {9.32.1}\discretionary {-}{}{}Detailed \discretionary {-}{}{}Description}{192}{subsection.9.32.1}
\contentsline {subsection}{\numberline {9.32.2}\discretionary {-}{}{}Function \discretionary {-}{}{}Documentation}{193}{subsection.9.32.2}
\contentsline {subsubsection}{\numberline {9.32.2.1}main}{193}{subsubsection.9.32.2.1}
\contentsline {section}{\numberline {9.33}mainpage.\discretionary {-}{}{}h \discretionary {-}{}{}File \discretionary {-}{}{}Reference}{193}{section.9.33}
\contentsline {subsection}{\numberline {9.33.1}\discretionary {-}{}{}Detailed \discretionary {-}{}{}Description}{193}{subsection.9.33.1}
\contentsline {section}{\numberline {9.34}\discretionary {-}{}{}Menu\discretionary {-}{}{}Handler.\discretionary {-}{}{}cpp \discretionary {-}{}{}File \discretionary {-}{}{}Reference}{193}{section.9.34}
\contentsline {subsection}{\numberline {9.34.1}\discretionary {-}{}{}Detailed \discretionary {-}{}{}Description}{194}{subsection.9.34.1}
\contentsline {section}{\numberline {9.35}\discretionary {-}{}{}Menu\discretionary {-}{}{}Handler.\discretionary {-}{}{}h \discretionary {-}{}{}File \discretionary {-}{}{}Reference}{194}{section.9.35}
\contentsline {subsection}{\numberline {9.35.1}\discretionary {-}{}{}Detailed \discretionary {-}{}{}Description}{195}{subsection.9.35.1}
\contentsline {section}{\numberline {9.36}namespaces.\discretionary {-}{}{}h \discretionary {-}{}{}File \discretionary {-}{}{}Reference}{195}{section.9.36}
\contentsline {subsection}{\numberline {9.36.1}\discretionary {-}{}{}Detailed \discretionary {-}{}{}Description}{196}{subsection.9.36.1}
\contentsline {section}{\numberline {9.37}\discretionary {-}{}{}Print\discretionary {-}{}{}Object.\discretionary {-}{}{}cpp \discretionary {-}{}{}File \discretionary {-}{}{}Reference}{196}{section.9.37}
\contentsline {subsection}{\numberline {9.37.1}\discretionary {-}{}{}Detailed \discretionary {-}{}{}Description}{197}{subsection.9.37.1}
\contentsline {section}{\numberline {9.38}\discretionary {-}{}{}Print\discretionary {-}{}{}Object.\discretionary {-}{}{}h \discretionary {-}{}{}File \discretionary {-}{}{}Reference}{197}{section.9.38}
\contentsline {subsection}{\numberline {9.38.1}\discretionary {-}{}{}Detailed \discretionary {-}{}{}Description}{199}{subsection.9.38.1}
\contentsline {section}{\numberline {9.39}\discretionary {-}{}{}Product.\discretionary {-}{}{}cpp \discretionary {-}{}{}File \discretionary {-}{}{}Reference}{199}{section.9.39}
\contentsline {subsection}{\numberline {9.39.1}\discretionary {-}{}{}Detailed \discretionary {-}{}{}Description}{200}{subsection.9.39.1}
\contentsline {section}{\numberline {9.40}\discretionary {-}{}{}Product.\discretionary {-}{}{}h \discretionary {-}{}{}File \discretionary {-}{}{}Reference}{200}{section.9.40}
\contentsline {subsection}{\numberline {9.40.1}\discretionary {-}{}{}Detailed \discretionary {-}{}{}Description}{202}{subsection.9.40.1}
\contentsline {section}{\numberline {9.41}\discretionary {-}{}{}Product\discretionary {-}{}{}Flags.\discretionary {-}{}{}h \discretionary {-}{}{}File \discretionary {-}{}{}Reference}{202}{section.9.41}
\contentsline {subsection}{\numberline {9.41.1}\discretionary {-}{}{}Detailed \discretionary {-}{}{}Description}{203}{subsection.9.41.1}
\contentsline {section}{\numberline {9.42}\discretionary {-}{}{}Screen.\discretionary {-}{}{}cpp \discretionary {-}{}{}File \discretionary {-}{}{}Reference}{204}{section.9.42}
\contentsline {subsection}{\numberline {9.42.1}\discretionary {-}{}{}Detailed \discretionary {-}{}{}Description}{204}{subsection.9.42.1}
\contentsline {section}{\numberline {9.43}\discretionary {-}{}{}Screen.\discretionary {-}{}{}h \discretionary {-}{}{}File \discretionary {-}{}{}Reference}{205}{section.9.43}
\contentsline {subsection}{\numberline {9.43.1}\discretionary {-}{}{}Detailed \discretionary {-}{}{}Description}{206}{subsection.9.43.1}
\contentsline {section}{\numberline {9.44}\discretionary {-}{}{}Scroll\discretionary {-}{}{}List.\discretionary {-}{}{}cpp \discretionary {-}{}{}File \discretionary {-}{}{}Reference}{206}{section.9.44}
\contentsline {subsection}{\numberline {9.44.1}\discretionary {-}{}{}Detailed \discretionary {-}{}{}Description}{207}{subsection.9.44.1}
\contentsline {section}{\numberline {9.45}\discretionary {-}{}{}Scroll\discretionary {-}{}{}List.\discretionary {-}{}{}h \discretionary {-}{}{}File \discretionary {-}{}{}Reference}{207}{section.9.45}
\contentsline {subsection}{\numberline {9.45.1}\discretionary {-}{}{}Detailed \discretionary {-}{}{}Description}{208}{subsection.9.45.1}
\contentsline {section}{\numberline {9.46}\discretionary {-}{}{}Status.\discretionary {-}{}{}cpp \discretionary {-}{}{}File \discretionary {-}{}{}Reference}{208}{section.9.46}
\contentsline {subsection}{\numberline {9.46.1}\discretionary {-}{}{}Detailed \discretionary {-}{}{}Description}{209}{subsection.9.46.1}
\contentsline {section}{\numberline {9.47}\discretionary {-}{}{}Status.\discretionary {-}{}{}h \discretionary {-}{}{}File \discretionary {-}{}{}Reference}{209}{section.9.47}
\contentsline {subsection}{\numberline {9.47.1}\discretionary {-}{}{}Detailed \discretionary {-}{}{}Description}{211}{subsection.9.47.1}
\contentsline {section}{\numberline {9.48}\discretionary {-}{}{}Text\discretionary {-}{}{}Field.\discretionary {-}{}{}cpp \discretionary {-}{}{}File \discretionary {-}{}{}Reference}{211}{section.9.48}
\contentsline {subsection}{\numberline {9.48.1}\discretionary {-}{}{}Detailed \discretionary {-}{}{}Description}{211}{subsection.9.48.1}
\contentsline {section}{\numberline {9.49}\discretionary {-}{}{}Text\discretionary {-}{}{}Field.\discretionary {-}{}{}h \discretionary {-}{}{}File \discretionary {-}{}{}Reference}{212}{section.9.49}
\contentsline {subsection}{\numberline {9.49.1}\discretionary {-}{}{}Detailed \discretionary {-}{}{}Description}{213}{subsection.9.49.1}
\contentsline {section}{\numberline {9.50}\discretionary {-}{}{}Timer.\discretionary {-}{}{}cpp \discretionary {-}{}{}File \discretionary {-}{}{}Reference}{213}{section.9.50}
\contentsline {subsection}{\numberline {9.50.1}\discretionary {-}{}{}Detailed \discretionary {-}{}{}Description}{214}{subsection.9.50.1}
\contentsline {section}{\numberline {9.51}\discretionary {-}{}{}Timer.\discretionary {-}{}{}h \discretionary {-}{}{}File \discretionary {-}{}{}Reference}{214}{section.9.51}
\contentsline {subsection}{\numberline {9.51.1}\discretionary {-}{}{}Detailed \discretionary {-}{}{}Description}{215}{subsection.9.51.1}
\contentsline {section}{\numberline {9.52}\discretionary {-}{}{}Timer\discretionary {-}{}{}Flags.\discretionary {-}{}{}h \discretionary {-}{}{}File \discretionary {-}{}{}Reference}{216}{section.9.52}
\contentsline {subsection}{\numberline {9.52.1}\discretionary {-}{}{}Detailed \discretionary {-}{}{}Description}{216}{subsection.9.52.1}
\contentsline {section}{\numberline {9.53}timer\discretionary {-}{}{}Test.\discretionary {-}{}{}cpp \discretionary {-}{}{}File \discretionary {-}{}{}Reference}{217}{section.9.53}
\contentsline {subsection}{\numberline {9.53.1}\discretionary {-}{}{}Function \discretionary {-}{}{}Documentation}{217}{subsection.9.53.1}
\contentsline {subsubsection}{\numberline {9.53.1.1}main}{217}{subsubsection.9.53.1.1}
\contentsline {section}{\numberline {9.54}\discretionary {-}{}{}U\discretionary {-}{}{}I\discretionary {-}{}{}Text.\discretionary {-}{}{}cpp \discretionary {-}{}{}File \discretionary {-}{}{}Reference}{218}{section.9.54}
\contentsline {subsection}{\numberline {9.54.1}\discretionary {-}{}{}Detailed \discretionary {-}{}{}Description}{218}{subsection.9.54.1}
\contentsline {section}{\numberline {9.55}\discretionary {-}{}{}U\discretionary {-}{}{}I\discretionary {-}{}{}Text.\discretionary {-}{}{}h \discretionary {-}{}{}File \discretionary {-}{}{}Reference}{219}{section.9.55}
\contentsline {subsection}{\numberline {9.55.1}\discretionary {-}{}{}Detailed \discretionary {-}{}{}Description}{220}{subsection.9.55.1}
\contentsline {section}{\numberline {9.56}\discretionary {-}{}{}Utils.\discretionary {-}{}{}h \discretionary {-}{}{}File \discretionary {-}{}{}Reference}{220}{section.9.56}
\contentsline {subsection}{\numberline {9.56.1}\discretionary {-}{}{}Detailed \discretionary {-}{}{}Description}{222}{subsection.9.56.1}
