<?xml version="1.0" encoding="UTF-8" standalone="no"?>
<graphml xmlns="http://graphml.graphdrawing.org/xmlns" xmlns:xsi="http://www.w3.org/2001/XMLSchema-instance" xmlns:y="http://www.yworks.com/xml/graphml" xmlns:yed="http://www.yworks.com/xml/yed/3" xsi:schemaLocation="http://graphml.graphdrawing.org/xmlns http://www.yworks.com/xml/schema/graphml/1.1/ygraphml.xsd">
  <!--Created by yFiles for Java 2.10-->
  <key for="graphml" id="d0" yfiles.type="resources"/>
  <key for="port" id="d1" yfiles.type="portgraphics"/>
  <key for="port" id="d2" yfiles.type="portgeometry"/>
  <key for="port" id="d3" yfiles.type="portuserdata"/>
  <key attr.name="url" attr.type="string" for="node" id="d4"/>
  <key attr.name="description" attr.type="string" for="node" id="d5"/>
  <key for="node" id="d6" yfiles.type="nodegraphics"/>
  <key attr.name="Description" attr.type="string" for="graph" id="d7"/>
  <key attr.name="url" attr.type="string" for="edge" id="d8"/>
  <key attr.name="description" attr.type="string" for="edge" id="d9"/>
  <key for="edge" id="d10" yfiles.type="edgegraphics"/>
  <graph edgedefault="directed" id="G">
    <data key="d7"/>
    <node id="n0">
      <data key="d4"/>
      <data key="d5"/>
      <data key="d6">
        <y:UMLClassNode>
          <y:Geometry height="76.0" width="139.0" x="275.5" y="142.0"/>
          <y:Fill color="#FFCC00" transparent="false"/>
          <y:BorderStyle color="#000000" type="line" width="1.0"/>
          <y:NodeLabel alignment="center" autoSizePolicy="content" fontFamily="Dialog" fontSize="13" fontStyle="bold" hasBackgroundColor="false" hasLineColor="false" height="19.1328125" modelName="custom" textColor="#000000" visible="true" width="97.158203125" x="20.9208984375" y="3.0">FormFactory<y:LabelModel>
              <y:SmartNodeLabelModel distance="4.0"/>
            </y:LabelModel>
            <y:ModelParameter>
              <y:SmartNodeLabelModelParameter labelRatioX="0.0" labelRatioY="0.0" nodeRatioX="0.0" nodeRatioY="-0.03703090122767855" offsetX="0.0" offsetY="0.0" upX="0.0" upY="-1.0"/>
            </y:ModelParameter>
          </y:NodeLabel>
          <y:UML clipContent="true" constraint="" omitDetails="false" stereotype="" use3DEffect="true">
            <y:AttributeLabel/>
            <y:MethodLabel/>
          </y:UML>
        </y:UMLClassNode>
      </data>
    </node>
    <node id="n1">
      <data key="d4"/>
      <data key="d5"/>
      <data key="d6">
        <y:UMLClassNode>
          <y:Geometry height="28.0" width="100.0" x="150.0" y="226.0"/>
          <y:Fill color="#FFCC00" transparent="false"/>
          <y:BorderStyle color="#000000" type="line" width="1.0"/>
          <y:NodeLabel alignment="center" autoSizePolicy="content" fontFamily="Dialog" fontSize="13" fontStyle="bold" hasBackgroundColor="false" hasLineColor="false" height="19.1328125" modelName="custom" textColor="#000000" visible="true" width="74.966796875" x="12.5166015625" y="3.0">Add Form<y:LabelModel>
              <y:SmartNodeLabelModel distance="4.0"/>
            </y:LabelModel>
            <y:ModelParameter>
              <y:SmartNodeLabelModelParameter labelRatioX="0.0" labelRatioY="0.0" nodeRatioX="0.0" nodeRatioY="-0.03703090122767855" offsetX="0.0" offsetY="0.0" upX="0.0" upY="-1.0"/>
            </y:ModelParameter>
          </y:NodeLabel>
          <y:UML clipContent="true" constraint="" omitDetails="false" stereotype="" use3DEffect="true">
            <y:AttributeLabel/>
            <y:MethodLabel/>
          </y:UML>
        </y:UMLClassNode>
      </data>
    </node>
    <node id="n2">
      <data key="d4"/>
      <data key="d5"/>
      <data key="d6">
        <y:UMLClassNode>
          <y:Geometry height="28.0" width="100.0" x="460.0" y="166.0"/>
          <y:Fill color="#FFCC00" transparent="false"/>
          <y:BorderStyle color="#000000" type="line" width="1.0"/>
          <y:NodeLabel alignment="center" autoSizePolicy="content" fontFamily="Dialog" fontSize="13" fontStyle="bold" hasBackgroundColor="false" hasLineColor="false" height="19.1328125" modelName="custom" textColor="#000000" visible="true" width="94.20654296875" x="2.896728515625" y="3.0">Delete Form<y:LabelModel>
              <y:SmartNodeLabelModel distance="4.0"/>
            </y:LabelModel>
            <y:ModelParameter>
              <y:SmartNodeLabelModelParameter labelRatioX="0.0" labelRatioY="0.0" nodeRatioX="0.0" nodeRatioY="-0.03703090122767855" offsetX="0.0" offsetY="0.0" upX="0.0" upY="-1.0"/>
            </y:ModelParameter>
          </y:NodeLabel>
          <y:UML clipContent="true" constraint="" omitDetails="false" stereotype="" use3DEffect="true">
            <y:AttributeLabel/>
            <y:MethodLabel/>
          </y:UML>
        </y:UMLClassNode>
      </data>
    </node>
    <node id="n3">
      <data key="d4"/>
      <data key="d5"/>
      <data key="d6">
        <y:UMLClassNode>
          <y:Geometry height="28.0" width="100.0" x="430.0" y="226.0"/>
          <y:Fill color="#FFCC00" transparent="false"/>
          <y:BorderStyle color="#000000" type="line" width="1.0"/>
          <y:NodeLabel alignment="center" autoSizePolicy="content" fontFamily="Dialog" fontSize="13" fontStyle="bold" hasBackgroundColor="false" hasLineColor="false" height="19.1328125" modelName="custom" textColor="#000000" visible="true" width="96.61865234375" x="1.690673828125" y="3.0">Search Form<y:LabelModel>
              <y:SmartNodeLabelModel distance="4.0"/>
            </y:LabelModel>
            <y:ModelParameter>
              <y:SmartNodeLabelModelParameter labelRatioX="0.0" labelRatioY="0.0" nodeRatioX="0.0" nodeRatioY="-0.03703090122767855" offsetX="0.0" offsetY="0.0" upX="0.0" upY="-1.0"/>
            </y:ModelParameter>
          </y:NodeLabel>
          <y:UML clipContent="true" constraint="" omitDetails="false" stereotype="" use3DEffect="true">
            <y:AttributeLabel/>
            <y:MethodLabel/>
          </y:UML>
        </y:UMLClassNode>
      </data>
    </node>
    <node id="n4">
      <data key="d4"/>
      <data key="d5"/>
      <data key="d6">
        <y:UMLClassNode>
          <y:Geometry height="28.0" width="100.0" x="295.0" y="274.0"/>
          <y:Fill color="#FFCC00" transparent="false"/>
          <y:BorderStyle color="#000000" type="line" width="1.0"/>
          <y:NodeLabel alignment="center" autoSizePolicy="content" fontFamily="Dialog" fontSize="13" fontStyle="bold" hasBackgroundColor="false" hasLineColor="false" height="19.1328125" modelName="custom" textColor="#000000" visible="true" width="104.3564453125" x="-2.17822265625" y="3.0">Restock Form<y:LabelModel>
              <y:SmartNodeLabelModel distance="4.0"/>
            </y:LabelModel>
            <y:ModelParameter>
              <y:SmartNodeLabelModelParameter labelRatioX="0.0" labelRatioY="0.0" nodeRatioX="0.0" nodeRatioY="-0.03703090122767855" offsetX="0.0" offsetY="0.0" upX="0.0" upY="-1.0"/>
            </y:ModelParameter>
          </y:NodeLabel>
          <y:UML clipContent="true" constraint="" omitDetails="false" stereotype="" use3DEffect="true">
            <y:AttributeLabel/>
            <y:MethodLabel/>
          </y:UML>
        </y:UMLClassNode>
      </data>
    </node>
    <node id="n5">
      <data key="d4"/>
      <data key="d5"/>
      <data key="d6">
        <y:UMLClassNode>
          <y:Geometry height="28.0" width="100.0" x="130.0" y="166.0"/>
          <y:Fill color="#FFCC00" transparent="false"/>
          <y:BorderStyle color="#000000" type="line" width="1.0"/>
          <y:NodeLabel alignment="center" autoSizePolicy="content" fontFamily="Dialog" fontSize="13" fontStyle="bold" hasBackgroundColor="false" hasLineColor="false" height="19.1328125" modelName="custom" textColor="#000000" visible="true" width="61.10986328125" x="19.445068359375" y="3.0">... Form<y:LabelModel>
              <y:SmartNodeLabelModel distance="4.0"/>
            </y:LabelModel>
            <y:ModelParameter>
              <y:SmartNodeLabelModelParameter labelRatioX="0.0" labelRatioY="0.0" nodeRatioX="0.0" nodeRatioY="-0.03703090122767855" offsetX="0.0" offsetY="0.0" upX="0.0" upY="-1.0"/>
            </y:ModelParameter>
          </y:NodeLabel>
          <y:UML clipContent="true" constraint="" omitDetails="false" stereotype="" use3DEffect="true">
            <y:AttributeLabel/>
            <y:MethodLabel/>
          </y:UML>
        </y:UMLClassNode>
      </data>
    </node>
    <edge id="e0" source="n0" target="n1">
      <data key="d9"/>
      <data key="d10">
        <y:PolyLineEdge>
          <y:Path sx="0.0" sy="0.0" tx="0.0" ty="0.0">
            <y:Point x="345.0" y="240.0"/>
          </y:Path>
          <y:LineStyle color="#000000" type="line" width="1.0"/>
          <y:Arrows source="none" target="standard"/>
          <y:BendStyle smoothed="false"/>
        </y:PolyLineEdge>
      </data>
    </edge>
    <edge id="e1" source="n0" target="n4">
      <data key="d9"/>
      <data key="d10">
        <y:PolyLineEdge>
          <y:Path sx="0.0" sy="0.0" tx="0.0" ty="0.0"/>
          <y:LineStyle color="#000000" type="line" width="1.0"/>
          <y:Arrows source="none" target="standard"/>
          <y:BendStyle smoothed="false"/>
        </y:PolyLineEdge>
      </data>
    </edge>
    <edge id="e2" source="n0" target="n3">
      <data key="d9"/>
      <data key="d10">
        <y:PolyLineEdge>
          <y:Path sx="45.0" sy="0.0" tx="0.0" ty="0.0">
            <y:Point x="390.0" y="240.0"/>
          </y:Path>
          <y:LineStyle color="#000000" type="line" width="1.0"/>
          <y:Arrows source="none" target="standard"/>
          <y:BendStyle smoothed="false"/>
        </y:PolyLineEdge>
      </data>
    </edge>
    <edge id="e3" source="n0" target="n2">
      <data key="d9"/>
      <data key="d10">
        <y:PolyLineEdge>
          <y:Path sx="0.0" sy="0.0" tx="0.0" ty="0.0"/>
          <y:LineStyle color="#000000" type="line" width="1.0"/>
          <y:Arrows source="none" target="standard"/>
          <y:BendStyle smoothed="false"/>
        </y:PolyLineEdge>
      </data>
    </edge>
    <edge id="e4" source="n0" target="n5">
      <data key="d9"/>
      <data key="d10">
        <y:PolyLineEdge>
          <y:Path sx="0.0" sy="0.0" tx="0.0" ty="0.0"/>
          <y:LineStyle color="#000000" type="line" width="1.0"/>
          <y:Arrows source="none" target="standard"/>
          <y:BendStyle smoothed="false"/>
        </y:PolyLineEdge>
      </data>
    </edge>
  </graph>
  <data key="d0">
    <y:Resources/>
  </data>
</graphml>
