5

20130203T05
8

DELETE
507019032

DELETE
804594704

DELETE
807844309

ADD
Vantage Professional Binoculars
Powder
464076833
5454.96
Snappy Tom
553

ADD
Madrid String Straw
Outdoor Power Equipment
102689568
1240.12
N/A
964

RESTOCK
159326510
48

RESTOCK
683995061
136

ADD
VALUE FLYER
Kitchen & Dining
539627436
8780.38
Chux
830

20130203T04
1

DELETE
757122508

20130203T03
3

RESTOCK
541928059
128

ADD
Fedora Style String Straw 
Toys & Games
732364379
2159.81
Ai De Chef
224

SALE
777112744
149

20130203T02
1

DELETE
150282860

20130203T01
5

DELETE
590418885

SALE
468842340
190

ADD
Bondi Beach Pillow
Shower & Bath Products
326699423
3231.75
Bulla
172

ADD
Coffee
Golf
217826146
4850.43
Zooper Dooper
383

ADD
White paper shopping bag 
Furniture & Dior
428896267
2790.18
Tooheys
79





